Design Route Status
                                               :      # nets :
   ------------------------------------------- : ----------- :
   # of logical nets.......................... :        8732 :
       # of nets not needing routing.......... :        2944 :
           # of internally routed nets........ :        2944 :
       # of routable nets..................... :        5788 :
           # of fully routed nets............. :        5788 :
       # of nets with routing errors.......... :           0 :
   ------------------------------------------- : ----------- :

