3E506646
BE813E87
3D0F824B
BE91EA0F
3E3142CC
BDA00D9D
BEC08972
BE8125A4
3E535944
BE229454
BED3A710
BE970480
3E455D19
3E236F58
3D476A27
3E8FEEE0
3D601A8B
3D56B51B
BEBF6800
3E77371F
3D4DB12D
3EC0B8AF
3E03B7F1
3EF8A606
BE8381DD
3E2050EE
BEF0B13C
BEDC5516
3CE58337
3EC654EF
BEC7A04B
3E58D83B
BD451D92
3ED6BE77
3E1BFDBE
BDEE12FF
3B5FDF0B
3C00AD60
BF063BF5
3E6CF066
3CCB5EF1
BE872334
3E28151A
3DF58373
3DFC9092
3EF279BF
3E104D7B
3E72FAD8
BE9FDC6B
BF0EC17C
BE4FC9FB
BE8D273D
BF1DCC8E
3ED99D44
3DD95721
BE89E87A
BEEE29FB
BF0D5AE4
BD2078A0
BE476FE6
BD5265F6
BDC356A4
3E1EFFE7
BF501EA3
BEE4A7B0
3CF55C50
BE5DAB75
BE66F3EC
BE480631
3E73C17E
BE374583
3F3F8647
3E16497D
BEED6241
BF932CD7
BF43F8A3
BD5FC81B
BF15353A
BF357C4E
3F1CA774
3DDFC904
3E4B29B9
BE01013E
BF386F21
BDD959E6
BE49A493
3E391F49
3D3AD634
3EA31CB0
BDD6BF1B
3E599501
BC9EE088
BF01BA7B
BE80C1F3
3EF19971
BF1E34BE
3E80C6CB
3E05C795
BE4D75E8
3E59AB0A
BF408DC1
3EE43843
BDCCEB0F
BFE8BC08
BDE7CE7E
BE46213A
BEBB2372
BEC565F2
BF1181D5
3EA15330
3E2F1B8E
BF19F3FC
3E149ED4
3D61DB6D
BC81CA98
3E3C35A0
BE3F0D4E
BD6C4477
3E25D612
BF0269EA
BF2B47EC
BCCD4F5D
BE273957
3DD9CD8B
BEE3DAF8
3F3D0FB2
BEA230B0
BECDE0AC
BD993119
3CF1625C
3E4A72C5
BEA0A045
3F0C7586
BDF92C79
3EB0419C
3E339B10
BE183807
BE7DBEC0
3F086E3E
BE11F25E
3D8858BA
BF05BC6D
BF33BDAF
3EAF4CBD
BEDF0536
BF1C6887
3DC6BE79
3EB4D3BD
3D7FFE23
3DA63986
BE4BD06C
BEBBD1BF
3DC86145
BF0DD555
BEF7F9E2
BE582282
3D0082CB
3CB4BEBB
3E977C4E
BEDAF631
3E1776B8
3ECB53B4
3EB5B65B
BD8B7623
BE9BFCA2
BDBECCD2
BE36B38F
BE403981
BEE238B0
3E9B2059
BF0495E5
BD8D9C2E
3E1F3740
BED3991C
3F02FE33
3DA66333
BF2686B7
BF12F4A9
BF4B5BA6
3E5734B0
BE7251F2
BE6E854D
3F035274
BE8FCEEE
BF134FF7
3EA3F3E7
BE34C227
BDCF8597
BF5257BA
3D4B6EFE
BFC4A061
3DC6F750
BF2654DA
BF668BF9
BF8C6B2F
BE35E9B1
BF1A80A6
BF1C0F71
3DF044A8
3E7FF0D4
3E81729D
BF44C165
BEA62C0A
3E2FA00A
3E05E99E
BEF6A35B
3ED29A0D
3E024E13
BC980D7B
BCC0614A
3E7B74A9
3E84B532
3D960A47
3D66C56D
3C12452F
BE360431
3E76BF9D
BDC6BDAC
BDD74178
BE9A1CE9
BF0BF573
3D749CF5
3F10BC5C
BE707EF5
3EA381F1
3F0B66C6
BE357959
BE6840DA
3D524227
3DAB0E8C
BCB23560
BDD498AB
3D7D1E33
3F392578
3E62EEE1
BB029C91
BDAD8CC8
3D8DB281
3D48671F
3EB8BB23
3EA3E5CA
3E8EE367
3EA58990
BEAE8EEE
BEBCD9F7
3E8B202A
BE9F6C09
3E7D132C
3E27693A
BDCF1D10
BE0235B6
3E43EC13
BEE7FFAE
BF2FCC9A
BF05DADA
3C06ED20
3E0323A0
3DFBC82A
BE275F2D
BCBB5122
BF157A1B
3EA87F08
3E8CF465
3E3C7BF0
BDB8450E
3EFDEADF
3E238D34
3DD508B4
BF20058D
BC2671BA
3D36EA69
3E9286E6
BC396CEC
3EACF730
3F0E7AC8
BEF8EC76
BE2B1657
B93C7F74
3E8BFCFF
3DD12ECE
BF053BA8
BDC8D18A
BF0DEEF8
3F83F73B
3E9E8A78
3F07A696
3ECFFF88
3F081FFB
BD49576D
BE53B6C3
3ED350A1
BEA1D2EE
3E8A6D3C
3DFB2C84
BF23F182
3BAC5D2B
3EAD53D7
3E8BD928
3E67218E
BED8D51C
BD844C7E
3E6D1B85
BEE66A28
BF83215C
3EF7C249
BEDEC068
BE8AD18D
BE4EBE7B
3DAA2929
3ECFA8CD
BF308ADB
3E951081
BE4A4123
BE4B41DB
3DB6C07C
3E1E6C39
BECD98B9
BEB8887C
3ED57FCA
3D2DF776

