BC86F5C3
3D4CB270
BD865E14
BD16FEA5
BCC032B0
3DCD8EA8
BD27221B
BD0F2A9B
BCCC580D
BD8C2290
BB8ABA18
BC289245
BD67134F
BE264DFC
BCA05382
BDEB04CA
BC78ED27
BCD29A06
BC007FE2
BCAD0A09
3D0A05BB
3CAE0359
BD10C84D
3A448ADF
BD940FD9
BA064529
BE024FB3
3DFCF5CD
BD06DFC8
BD95D203
BD297874
BC32FF9C
BD44256E
BD241C95
BCFE604D
BD334B79
BCB44D2F
BC5F11BE
BCD80926
BD5C6510
BD03F2C4
BCADAABE
BD050240
BD30C844
BD1447DE
BCA67062
BD3B210B
3D24698C
BD8086CD
BD1C1969
BD1A4457
BE2E9370
3DB53166
BE056ED6
BD435D8B
BC14539F
BC61218E
BDA1C84F
3C64A9CE
BD7427F3
BCBA95A8
BDBBA6AD
BD4978C0
BC63643E
BCCCBCD2
BDB04889
BA6E2664
BE1B9B7E
BD83CE26
BB425626
BCC4DD85
BD560CDD
3D939E03
BC0445C0
BD9782F6
3E19B9F0
BCEB6CAB
BE0582DB
BD16458F
BCD0C50F
BD183FBA
BC8AD55C
BC56E25A
BD102C53
3C95AD8C
BBBEA9B4
3DD72FE4
BE0F942B
BBBD8AA5
BBC0DD6B
3CB7FC36
3D5D9E41
3E05396A
BCB6CBA4
BD4D6F27
BBD0F668
BC39EE59
BC16009D
BDD89266
BC02D1EC
BD6DC3A3
3E8AAF8A
BC46EEDD
BD310234
BB9D89E9
BC3ED9DA
BBB035BD
3D2D633B
BD3E6F51
3D0B3012
BD4C154D
BD09CEAB
BC42BBF2
BD19065C
BC8F9727
BD900469
BC389A71
BD9AC82F
BDE2DABE
BD6DF399
BCC73853
3C24EE16
BCF2D814
BC931F92
BD63E614
3D3A8319
BBF884B7
BD25808D

