BD4D8CBC
BAC27283
BA845F1A
BB2B8B2D
BCB163D4
BD21AE75
BAD38749
BAA43399
BA63C7A8
BCB20F91
BB82DA54
BA477366
BC3527DA
BC0BFC58
BAD826DA
BD172305
BC437283
BAD54CD0
BC13F1E0
BB8A5FD1
B993BA5A
BBCDA969
BCA7AA32
BB587FAF
BBE306F4
BCF0480E
BAD04C66
BBE4825F
BB826A3A
BBEF9FD5
BCE25E0B
BCDDE2C1
BCC3EF42
BB8415AE
BC10ABB6
BBB56C1F
BCABFBF7
BBC791B3
BB35523E
BB4AE650
BC8B9753
BBFD55C7
B8802B88
BCA3937A
BD24F1C1
BC4AD4BC
BC88CC14
BB122D65
BC6246E2
BAE66ACE
BBAE371F
BA89BA09
B9DD138F
BC21B689
BC199771
BCD84FF7
BB359052
BC2F4292
BB26AF01
BAD56241
BC2F5FFB
BC61CD4E
BCA41727
BCABC8D2
BC8A8D07
BC7295EC
BD21156F
BB4ED10D
BCB32320
BB948A6F
BBB4FA79
BB998FCA
BCB5D16F
BC32E9E8
BB0CF6ED
BC0178D5
BA1B4D22
BBCC9B08
BD46E842
BB6900E5
BB02E30F
BC82ADF0
BB7C3958
BC11AD52
BCB30A59
BBD5120F
BBB6B969
BCA7A3ED
BC9783FC
BB5EC8C8
BC4A60A2
BC198987
BB9A267F
BB8E80D0
BD37CE92
BAB6B7EA
BCE2A798
BC49ABE9
BB94CF80
BC21BAC0
BC8208AA
B9B47818
BCAB3A58
BBCD32E6
BBF91423
BB452047
B9E238A3
BAA706FF
BC12BA4B
BC23CF9B
BC19E4B1
BD1652CC
BB30F7EF
BBCAC0B8
BC9AA788
BD0497EA
BB49AE8C
BC74384C
BA5A04ED
BC944AB8
BCB7D0A0
BB1294CA
BAFD20EB
BCE2177F
BCB529F9
BC08B3B6
BAB796D9
BCA3578B

