3E404F99
BDE2CE0E
BC3B229D
3D61F1CD
BE2645A3
BE10C8BC
BD47A382
BC984825
BD055D42
3DD4001F
3D9DD802
3D54F67A
3BE78220
3DF64350
3D435498
3D322690
BDA89092
BE4776DB
BE1E30A6
BCEE932C
BE1F53F4
BE0768C6
BD5C7C83
3D06C56F
3CC77112
3D3A3A94
3C54AA70
BDB101C4
BC9FAED0
BDC335AD
BD212B00
3DC4E5CC
3D5B62DA
3D6E6806
3E3202B1
3CA08FAC
BD03E813
BB1EF143
BE42FAB9
BD9EB4B1
BE227B8F
BD835A86
BCF8C3DB
3DC8F2AB
3E1772FC
3A86251B
BDADE8B0
BD96944C
3DDB4EE2
BE4FB42B
3D990B9D
3E29DA17
BE0D5138
BE41FC61
BD07AC19
BC18720C
BE0DCB7C
3E059AA7
BDC7AF14
BDE82218
3E083BBB
BCE3A2A0
3DBCC8BE
3D840D69
BDE8A7C3
3E666208
3E049B77
BDC83014
3DF2B317
BE103204
BCF2E068
BE5C711B
3D813D4E
BEF51420
3D827451
3E8F7DF9
BDAA5CD6
3E0730BD
BC867999
BE1846BF
3D186C70
3E8B0ECA
BD61D16D
3E3D6370
BE0AE01A
3C9D92BD
BD7D0DF7
BD8A29B0
BE38FE95
BD3A7640
3D975E9B
3E402F04
BE156AD6
3E16C172
3D300CA0
3DDA293D
BDB1C9D8
BE5F013B
BD93A2E5
BE2858AD
BCD453EB
3D62F437
3E677F4B
3E363682
BD9C66B7
BE17CF7D
3E4B8F21
3C5823E3
3E82E7AC
BC271866
BD8B032B
BD86BE6B
3E706847
BDAC242C
3E19D4E5
BECC99CE
3E1C6996
3DA8223D
BBFDBDA6
3DF74DD1
BE0857E2
3E32F6B6
3D0FC23A
3D5A13A5
BD8193B0
BCA3835C
3CAF6E08
3E1C4B93
3E519E90
BE377B67
3EA2BD8F
3CAE067C
BD598A75
3E0E7419
BD272354
3DFF63D6
BB2C4242
BD0C9BD5
BE0268F3
BD03B833
3DECC278
BE4CEA3D
3D6921AC
BDC233F6
3D858458
BDF652FD
BE26CFD3
BE8B292E
BE52A8D8
3D11BEDF
BDA618B6
BE85561A
BDE28ADB
BDC55CAF
3C83619E
BE225403
BE1D7A60
BE36769D
3E8970C7
BE75F505
3DB471E5
BE342A25
3D9AED0E
3B3F5AD2
BDC64E1B
3C2A60A1
BCF563A0
3E087765
3DF89EBE
BE2DFD45
BE25E3BA
BDA68088
BE46EFA9
3CEFD5B9
3E3D7029
BC1A1CF2
BE5C8B43
3E0CAFB8
BE95FE90
3DE04D63
3AE9C7FE
3DA21762
3E29BDA1
3BE80763
3E23DD07
3E08434E
3F0491C1
BD0ADD7F
3D98A989
3D5D1AC2
BE0486E7
3E4AAAAD
BD86B18F
BC69566B
3DB5E427
3D0E4521
BE1F3BDC
3D574886
BDA38748
3DA9367D
3C88D08C
BD4753D6
BD949C5F
3E0A83AD
3E2E9CC5
BE240545
3C0D4343
BD22274F
BB9645D0
BE1B9215
BDF4E09A
BC688EFE
BD32B432
3DA80850
BE2F3F38
3D867660
3DD175D5
BDBE0107
3CB3BF4F
BDDC9F90
3E1AF643
3CCF6097
BDEC8E9B
3C75BCE1
BE08C407
BD93B30E
BDAF27F2
3DA2E130
3DF02E8A
3D879B56
3D251863
BE071D72
BD3F525D
BD29B0A1
BE168B2C
BDBA6465
BD7B4FC9
BE195EFE
3E031CEF
3DE54BB3
3D773908
3CEA722C
3D095FD8
3DAB607B
3E3A011A
BD92E362
3D3A7129
3C6CFD3A
3DE3D69E
3D8FBACC
3D026B00
3E44F45D
BD3060C7
BD9C5221
3E2A3713
3D83D06E
BE2E751B
3DD48AE6
BE36F936
BE2B782D
BE1F4CAD
BD976AF1
3DC3C05E
BDCC8BBD
BE14D1C2
BE120FEC
3DE73E8C
BE069F61
BE0D7C91
BCE7C9A5
3E0D538F
BD324305
3CF5F49A
BDD776EC
BD351319
3DF911EB
BE09109C
3A4F0B8F
3D7B1F47
BCA2F57D
3E25455E
BCD861C7
BE0CEB48
BC113476
BE0F1189
3DA4CFB1
3D0EB117
3D958A31
BDB47343
3D9CFA77
BB60F189
3CCE3706
3D6B0194
3DC73AA4
3DA21F20
BE09A783
3D65183B
BDBC47AA
3DB82D65
BC0DC787
BDAB579B
BADFC0A3
BDD3C1D5
3968E913
3DBF82DE
BD6CA016
BDAB0DB6
3D87C9E5
3DB641E9
BE2F14D0
BDE337B9
BDC5ECA0
3DD52146
3D8F8630
3E28BE43
BDDFCA07
3DFAEA1E
3DD008DB
BD860977
3DF6826A
BCBF469F
3DBF3E24
3DABC663
3DB26F86
BD05227F
3E03E5D9
BD8E22E6
3E2D5C7F
3EA2EAA4
3BA54BD6
3DB35E53
BDC3FFCA
BE4D48B4
3E47A14B
3DB496FC
3E05307E
BB5633C3
BC42CA9C
3D92407B
3D17EC3F
BB52A879
BD4659EC
BE252205
3E4DA363
BE1116BF
BE4FE453
BBC77220
3E29E6A3
3D992FA6
BC2549AF
3E5A068D
3E72783D
3D38602B
3D9D63EA
BE1C626B
BE4CB70F
3E002561
3E1F4E78
BD965EE1
3E2C5330
BDA49A6F
3DCB2478
3DF72779
3D60F013
BDFDB94C
BDF2EDB4
3E460AD4
BE69A515
3CB0C847
3E3602CC
3DE59EB6
BEE665C0
3E199309
3BB97976
3CA6A29C
3E0B4D1F
3E14E261
BE2085AF
3E364C9F
3E8F884B
3DD06148
3DF1C1B1
3D01CECF
BD764489
3DCB6F65
BE0142AD
BE069427
BE1280C5
3C991851
3DE47795
BDB02726
BDC5C204
BD8B9A89
BDDD88BE
BDA8BA2D
3D6C2AC4
3DF749E2
3BD388AC
BE1E88CF
3BFEF859
BE1CD045
3E29D0B7
BD2459D3
BDA11EB8
BC3107B5
BD101229
BB7D9732
3DBC4083
BDE01B33
BD89827E
3DB228BF
BD075CC7
3CD9DCC8
3D32D28E
BCFD7FF5
3CCB8F3D
BE049975
3CE22168
3CC56832
3D5D7A97
BE26DFF0
3E50E4A5
BE3C82C6
BD997E26
3D425A44
3D318766
BDF8976E
BDAC11C2
3E0E2296
BD5E473B
3E007BBA
3D2EDFBA
3E217008
3D8CA189
BDECEBD3
BB8CCA1C
BD9E053D
3E04C0A0
3DD32C7B
3D364FA3
3CB3CE87
3DC61276
BDC4C388
3E1CAB0E
BCB58A68
39F8AC3B
BDE5CA07
3E2BAD67
BD2C00DC
3DE6216B
3DF41AAD
BD8B16C6
BC251FE2
3E8975CD
3DC697C4
3E31EBF4
BE5816E0
3C948FAE
BDB5EC5C
BDB7B13B
BE084594
3DD9E69E
BDF38B03
3C8C11EC
3CAF129B
BDA29481
BDAF5072
3C648496
BCE1EA8F
BDC40770
3CB72C0B
3CE749A6
3C8DA0FE
BE1998B0
BD434546
3E1A09B2
BE239501
BE862765
BD1317E8
BD767AFC
3E363C77
BE138020
3E2093DF
BDAA9E8D
3DAAB117
3CBCA09A
3CAE4803
3DF56A5E
BBF63D5A
BE5C911C
BDB1FC8F
3D3E4853
BE614623
BC47CCB7
3DD729F1
BD75F79C
BE48B262
3E8AAF00
BC645C93
3E77DF90
BE5D41AF
BDAFC1DA
3E8554B4
BE4B431F
BD987404
BE1F9C6B
3EBEBCAD
3E28B29D
BC8B1578
BD5F07FA
3D852B40
3D1B7C6A
3E1AF039
3D1F6E53
BE205DDB
BCC88EDE
BCDCEBB2
BE1111E9
BCF22C2B
BD9CCB78
BE007E7F
BE377DD1
BD25698D
BE07D428
BE24AEC3
BBFB2FD0
3DCCA4F1
3DFFF9D4
3D859D4E
3DFFA6AA
BDC6BB90
3D177BDF
3DCC16BD
BE1F6FDD
3D614B09
3E222C8F
3E23D5AF
BDF86A52
3BE6594C
3A915ACD
BE1E1752
3E19285A
BD438C99
BE2EE43D
3E075FA9
BDF70E0D
3D7E0470
BD031728
3E207E99
3E097C51
3E257D44
3D9E7E0E
BD8E84DA
3D7BF47F
BD0120E1
3DAA39D9
3E35C09B
3E04F5A9
3D6511D0
BE232B37
BD006D6F
3DD5E832
BD9ABAC4
3D15CBD8
3E1AF130
3D84A971
BBD0C5CC
BCCD6842
BD7BA683
BDA632F4
BE007565
3D0C8D94
3E1FD35F
BE09ED4D
BDA2196D
3D804CEE
BBBB554F
BDFFE199
3DFDAE89
3E346FBF
3DDF153A
3E2FD836
3DA73981
BE2E6866
BC183A6A
BD8D4EB0
3DC145EE
3E28DB5A
BDAD5012
3C2D8F6A
BDCCFEFE
3DA73D02
3E14BF9A
BD50CBA8
BC04E874
3DC52044
BD2BEB80
3D901EBF
BC077CC1
3B5C195B
3E050536
BDB41DD3
BE05633C
BD2969FA
3DBCC57C
3B99EE26
BE3A8700
BCDCFBF7
3DCF10CA
3E0737AE
BE3A38F2
BE13EBD5
BE1AFB3E
3DD6F473
3E2B975B
BCB38F5D
3C793702
BCBC25A2
3DB41F31
3D4457C0
BDDEA225
BE4788C1
BC445919
3E418F3D
3E21D4A8
3E009E2D
3E0F6987
BC5289E7
3D299532
BDAC3BE3
BDF5E1E1
BBD7E954
3E093CC3
3E793D70
3E5546FD
3DDB206C
3DBBD2D3
BDD87D5E
BE2E0097
3E5F8782
3DBB8662
BDBF17C6
BD41503B
BDC97729
3D978EFE
BD886815
BD8C9ACB
BE0CCB5C
BD7B31A3
BD0A54BA
BCFC92B8
BD880EC9
BD885D3E
3C8A19DC
BDF22093
BE035BB8
3DD4E01F
BD3E0F1D
3E135A2F
3E1ADBEE
BC5C5D15
3C2F55EB
BE0DD2F8
3E11BE1D
BE014922
3CB0BE81
BD9E9554
BD6B329D
BC18C3C0
BDEECF35
BE163AD3
3DDF5031
3D970C76
3D265F4E
3E2326C3
3DCD5701
3E307D8F
BDDF4EA8
3E1B072D
3C9CAFAA
BD9746DA
BB95FDB6
3D041C5B
BD3D28F5
3DD2201C
3DBB3FC7
BDF72A8B
3D4CEABA
3CC64F4B
BB4C7169
BE077ED6
3D0C7A5E
3A970B35
BD946D8F
BE051534
BDC33C52
3E2D0A1E
BE1FB1AD
BD78258B
3BC8850E
3E2C2C10
3E2B6583
BD1737E6
BE291CC7
BB843ECB
3CBD8984
BCA47B21
BD95AF4C
BDB3AB58
3C6E4CC4
BB499605
BD40CC21
BD24C605
3DC1C78A
BE146465
3CDDB09D
BE010F53
3DBFA1BD
3D6C2ED1
BE3DC36A
BD127CC2
3DE6BFCF
BE29F1A8
BCE96A2E
3D6A803A
3DA670F2
3DEABDB2
BDA94763
3E1E1949
BDF7A741
3C842D18
3DE3C023
3D16A038
BDACB966
BDD0A00D
BD11B647
BD6AC3E0
BA09FD98
BE1E8545
3C201258
BE2B1EC0
3E017BB9
3C773B21
3E14478B
BC99B499
BCA1910D
3D3B19F4
3E074204
BDF696BD
BCC54D8D
BD046E7C
3C38AAEC
BBFD13C4
BDFEB350
BDAEBCA7
3E01628D
3E00AEFC
3DEF10BA
3CD53DFE
BE149486
BDDD0D4B
BDB3F4FF
BD3E67CF
BDABA529
3D9162E4
BE2A704A
3DC97312
BD97BD2A
3EDA9D75
BDBFFA15
3E689439
3DD98A82
3E0CC206
3E9BD425
3DF917EB
BD241C06
3B45279D
3E132DD7
3E62BCF7
BE5A1BA6
3CEDD83C
BE11C981
BD65ABC4
3E3318EE
BE32ED77
BE163130
3E13EB77
BE6A7D88
BC5BA4BC
BE21EB75
BC57F0C0
BCBE1495
3DCFB16E
3DDBC033
BD3ADDB9
3E1ACFB6
BCE8A4E4
3CBA8A7A
3E04FA0D
3E2AEB21
3D6F139F
3E0B19A6
BDC654C8
BE03BFB7
BE104A51
3D22BFD7
BE3F4CAB
3E410127
3D56B92C
BE24109C
3DB8DE4F
3E6038A8
BE273BE4
3DCD5378
3D023AAF
BD9FF81C
BEB92755
BE71A43D
BEFA9D33
BDA15718
BE2DC3A7
BE316C1F
3DBF201F
BE430687
3E9C3E2F
BE226562
3E74557C
3E067351
3D559C3C
3E478DBC
BD7E35B1
BDAC50FC
BE5EC448
3E9E24F7
BC10F3EA
3E3DE0CC
BE1F4AF2
3E3F8FB7
BE33FD6E
3DA4590B
3E18682F
3DC29B22
BE7AEBBD
BE203C13
BEA1A62F
BD7F07A2
3D6EE0B6
3E618734
3E9B9346
BD27670C
3C386E0C
3DF378AF
3DE98AB4
BC09B0AA
BC6ACBBC
3D4D737E
BDC8BBDD
3D865D81
BDC60639
3E143494
3D1DCF64
BEE9E83C
BC17683F
BE902A53
3E402B7A
3E09053B
3D06537B
BD8CBCF2
BE3BDA01
BE789A32
BDE544D1
BD31CA06
BE234F8A
3E0B37E7
3E597EF4
BCE7C9A4
BE81BD7C
BDC99674
BD392F20
3E4F42BC
3E32480C
3E579C6F
3DFB0729
3E008409
BE7CA74A
3E3FC566
BDB3EE6C
BC43151B
3E52AB56
3E15CA54
3D6B77EB
3D87D5AD
BCEEB695
BE1DB3AF
3DF15F19
3D03DAA2
BCA40A9D
3E0B6B0C
3DAAE48F
BD34094A
BCE6BFD8
3DCE65F3
BE1002CE
3DB44DF8
BD6A63A8
3DA8B89D
3BAF77A0
3DF7E5F9
3DA384EE
BD6CFB61
3DCA60C1
BE1CE00A
BDAD8DB3
BE0DC2FC
3E204A38
BDE40B31
BE290E18
BB6E8F60
BCEBB917
3D4ACBD7
3E1EE563
3DBA7F69
BD838C3A
BD677D88
3E2E6F65
3AA15E87
BE09C277
3E00EDB3
3DD9F200
BDEA26FC
BDEBE383
BE14771E
BE23E9E9
3D4E8CE9
3DB45556
BCAEA195
BDEE7821
BE1BB2DE
3E062975
3E12CBC5
3E2F84B8
3D7FB009
3D258DAF
BDDBD54F
BDFC7C7D
BD9C026A
BE1A2770
BDD6AA34
BD7EA6FD
3E069742
BB4C3483
3D6274E3
3D2C8DE5
BCE740ED
BE118F36
BCB8CBD1
BCCC49A0
3E052F62
3B826639
BC9357F3
3E84CC08
BCCD3759
3E896F38
3E9179AD
3DB001D7
3E1A13E4
BD89F7DC
BDDBD3C2
3E0BB912
BE99446F
3D2F882D
BEBCCBEF
BE705E98
BEA5432E
BE0A0E99
3D646F2E
BDD4C428
BE549750
BCD5FF8B
BE01B4BD
3D43C26F
BDFA1378
BEB9ED72
BDDE836D
3B68E030
BDEC59FF
BD566E71
3E142642
BDAB7D36
BD9B2589
BE2A0920
3CA76ED4
BD9071A6
3DF242C7
BD8DE146
BE391D85
BE369AB2
BD6FD342
3DECBDCE
BD8E2719
3E11261F
BDB41B61
BE64EE30
3A894AB1
BEDE578B
3DE11D9D
BDA71CA3
3E4A75B6
BD5C3A0B
3C9CB859
BE388C98
3DDDC922
BD8077BD
3D4AC6F2
3E77BF5A
BD048A51
3D08EDA6
3E9D7F2E
3ED3FD7A
3E0F4926
BDBA37A3
3E2E224F
3DEEED7B
3D411015
BDF8D311
BC74B17A
BE4B6996
3E930BD3
BDAFE9A6
BD8C961F
3E0CFFE1
BF66FB11
3CECA4A7
3DF009CF
3E204F9E
3E43CB9E
3C2BA5A2
3E4C3F3A
3DE38D7B
3E3ED98F
3CEE8ED0
3CECFF20
3951AEC9
BD91E5D2
BCEAE623
BDDFDE5B
BE23010E
BD8FC2B1
BE2D2704
3DBD9C65
3D6BB34A
3EA8C16B
BE20AC92
3E73EE60
BDE90DD9
BAC433F8
3D9CCC6D
BE18EF89
BCB3249A
BE01F332
3DBD5556
3D2129AB
3E240BE9
BD5AB015
BD295513
BC2A2211
3EC3D1C2
BDB64145
BCFCB517
BD97D91A
3D79C512
BD22D5CD
3E2DDBA9
BD4A8009
3D846D4C
BD5BA5E1
3C91B39F
BDD41DC5
3D85C525
3D397746
BD273A42
3C62623F
3D9CA8C7
3E32F31D
BD2137F1
BBD8EF43
BD1C9716
BCE24A6E
3CEFED43
BD9F6C27
3E2F4F78
3E29425B
BDD17003
3DEFF258
BDBDFA90
3A1EB875
3CB2CF2A
3E1B7E9E
BD85470C
3B6788AA
3DF75D1C
3D222666
3E2DF7B2
BE02F5B8
3D8E9AD8
3DB9663B
3E1195FB
3D1AC7AA
3DDB40A9
BB47F2C4
BDCEB61F
BDA1A834
3CFF91A7
BE30AB3F
BCE2C2FA
BDAD8F55
BE28401E
BDD0604E
BD18D4B1
3E2BD1E8
3D11761A
3DF667AF
BDD9F9C5
BD493319
3D0FFE7E
BD831CC4
BDFEBB76
3DBBBA1E
BD1D1F80
BE1D4F8F
BDDB7D15
BDA9B505
3C7E30DE
3DB2720C
3C07A8EF
BD3CC141
BC47F3CD
BD00B254
BDFEAA8A
BE0B6B3E
BD19447D
BCCF88C0
3DF4D994
3E33CB64
BB7AF386
BDD2E499
BE25C2F1
BA2F5391
BE187F28
3D75A933
BD8810B2
BAAD1C71
3E0D008B
BE2AB7E1
3DB44A17
BD4FE754
BDE83625
BDFBE9D0
BE1B9517
BD7F2F8E
3C9DC280
BD083204
BDE4158A
3BBF55F3
3E2A2510
BDD50A0F
3D17246A
3E052B5D
BE313A44
3DA7BAC2
3DE4768F
3D93D8A7
BD62CA5A
BC949608
3DCB2A31
3C9090B1
BD979EB7
3DAD1EE3
3DC6C67A
3DB469D3
3DC81BF6
3DFC8248
3D6B1F4E
3DEC8912
BE007C6B
3BFC9EB0
BB9B611E
3D58D567
BE2C4AAD
3CD8904F
3CCD0C16
3BB59B51
3DA0E30F
BD902F6F
3D8476AE
BCFA9C62
BDCEF988
39A51AE3
3DF157A7
3DC0CC09
BDE47B8C
3AF82E56
BD94ABA2
3DE8D906
3D5852BE
BE0A31EB
3D7F6331
BDC3FEE8
BCBBCC69
BCCE0654
3DB50F3F
3CFE1CBA
3E27A89C
BD0A1A69
BE152AC8
BDE7B1A3
BD8009BA
3E2B29AE
3CA4BC0C
BDF48B02
3DA6EA46
3D27771F
BDF0B050
3D33EDF1
3D80A567
3DCDF949
BD4BD144
B936235A
3C26177D
BDDCE1C7
BDA0C9D5
3E282271
3E2F6631
3CE27B08
BD0B79A0
3DBCAC75
3D680D8B
BE30ACC8
3D84636E
BE0377DF
3DBEB82C
3DEC6960
BD8DC4B4
BD321D27
BE17BFF6
3D880026
BE1BD6D8
BE0679EC
3E33A6B0
BE336338
BD2176F4
3D1E33DF
BE2532DF
BD2D1660
3E1F36DC
BCB04CE6
3E292294
3DCB6491
3CB590E8
3DF9369B
BD055B44
3DFD5009
BD82504A
3DC010B8
BD3E5000
3E23A224
BE17B277
3E24C7E5
3C0370E9
BDE64086
3C16C546
BE03CB00
3D13D7AB
BDE2FCE4
3D865CCD
BDF73D59
BD2DFE42
3D853F38
3DE4B453
3C88A1E7
BD3DE06A
3CAF355D
3E7AFE24
BDA14E9D
3B35B1DD
BB5E67CC
BDD523D2
3D4A40C8
3E178D45
BE9C6F20
3DDE112B
BCCF088A
3EDE929D
3CCDA94E
3DAD275B
3DF4CC79
3DD46CC1
3DC282F3
BE36F237
BDC95764
BE038141
BDA57579
BDAECA8A
3BA83741
BD997FBF
BE493CB4
3D01DDF6
BD28ED69
BE43D4A9
3DFF0631
3CE9651A
3E4A20DA
BD7ABA62
3C249EF0
3D21CEFB
3DBD5BE4
BCA1EC1F
3E3F3EDD
3E3F0232
3D9E2620
3D7F2154
3DA1316F
3E38AE4D
3DA31CB8
3DDDAA67
3DD4356D
BE57B330
BE7FDE2F
3C8B3568
3D99240F
BD064B2E
BF22E33A
3DDE3D12
BDB388EC
3CA057EE
3E1E549A
3DE2E8D6
BE5368CC
BDDBEEBD
BDC2ADDB
3DB19202
BE6E1E5B
3DF3E33B
BDB79B9C
3E5E7929
3D1CE65E
3D9A4F13
3E7B1ABF
3C376B97
BCC32A88
BE2858C6
BE295B6A
BDD14DF6
BD981029
BE178DEB
3E7FA3ED
3DAC0EA5
3D008081
BE01FF20
BD30E6BA
BF11ECCD
3E47C50A
BD20EDD8
3E906235
BDEF17D7
BD1792E0
3CC05024
BD612049
BDAC8D22
3CB619F4
BDB2F086
3E43B6EA
3E041E09
BDC2ED9D
3D890CB6
3E7ED0F0
BDD1FD74
BE33AD2F
BE0E90C7
3CA08AFA
3D3DB92D
3BED136B
BDF17F2C
BD69036F
3D610F09
BCE8D36F
BD2520E4
BDCA4930
3E520F51
BDC8C9E8
3DE6077D
3D7846BD
3E0676A2
BE881924
BEB45E60
3DC37F4E
BBA67CCE
BC9EEFAE
3D4292A9
BD4C0ED2
BE222CF2
BE1F18CF
BDE20937
3D948E3B
BD0EA676
3D877B34
BE23691E
BB8FB4B2
BD585A94
3D8FE623
3E0C6759
BD9EB38B
3DCA26E0
BCEA773E
BE286F65
BD9C2B3D
BE004AEF
3E319DE2
3D620412
3E1DE534
3B7FA941
BDC6A060
3DB6E70A
BBFA1474
3D16845E
3DEB8798
BBCA5B5B
BDAF4B98
BC3AC0BB
BCEC5CB9
BD2F6D7A
BC8E6FC9
3D8360D7
BCFF0B20
BC837DF5
BD8EA7CF
BDA57C12
BCE0CEB5
BE2EA083
3E0948C1
3D58F785
3CC333E5
BE1873B8
BE111BA7
BD81B7E5
3D16DA81
3C4D20A8
BD877747
BE1EFA6C
BE1EA58E
BD9AB2D0
BD17169B
BD788F1F
BDB1725F
3D83DC21
BD3C7A5E
BD463201
BD81C26B
3D92B3FC
BD903C39
BDC5BEDA
3DC0161F
BE18D29C
3A62FEE3
BE1F5FD5
BCD05CE2
BD62E016
3D82F7C2
BCBDB689
3D03D5D6
BD9601AB
BD394E49
BE1F810D
BE7C926E
BE9966DB
BE47B8AF
BCE7E573
BD81768B
3E7965A0
3E9A96BA
3E1B0166
3E027E8D
BE4EC292
3DC50453
3E643CF4
BF0EBE7D
3D88F72A
BE68D722
3E3460D5
BD84028D
3D864936
3E6DDF74
BE1C9D53
3D805B3C
3E3434CD
3E7C1CC1
3D50870E
3B92548C
3DEE0A5B
BE8361E3
399A4E00
BEE53FDE
BE0D69D9
3C7443ED
BDDF33D5
BE1A26EF
3D7BD964
BD5B4B68
3DD8BC80
BE2C094A
BE99E57A
BDD51664
3DF81B34
BE442894
BD919F04
3E30F558
BE2AF48E
3D8FA958
3F18F27B
3DE2E449
BE031346
3D0024F4
BD3B551C
3DF77440
3EE41998
3DBB3232
BE4E5668
3EDD4593
BE2C523B
3D617FDC
3E88B9E6
BEBBC1EB
3CACDBBB
BEA7D195
3DA405F4
3ECFF6E9
BE2DA0C1
BDE66DC9
3BC2A92C
3E799BFD
3CF1D984
BF0D0EF6
BE31ABE3
3EC808FA
3E7C4C95
3C753A60
BDCE115F
3EB329C8
3EC430F4
BB8EA865
BD902DFA
BE4A7332
BDA78919
3E519374
3C8F388A
3E813F46
BD3974A1
BC942F27
3DEE8816
3E9B753A
3DA50258
BCB82B56
BC7ED74B
3E70974F
BE1E7FC4
BE94332F
3E622713
BC8DFBB2
BEF2D435
BDBF8592
3C96D18A
3DE531C8
3B718995
BD945FA3
3EEC7445
BD18EAD1
3D82926C
BD4C8BFF
BE3D2E00
BEA13163
3DA61FCF
BDF4410B
BEF1D263
3E9A4869
3F0105AC
3C284FFE
3F0BAA31
3E8CCEC1
3E27B146
3F0B5257
BF32036D
3F0E64F1
BEC904F0
3F19DC32
BE3892DB
BF086E93
BE30069D
3E8959C6
BDFBD4BA
3C2FA098
3EE51A38
3E2800C3
BD074A99
3E412E8B
BE18A8A2
BE84087E
BD42C1BE
3E7E61A6
BC3BCD77
3ED091E4
3EACB77B
3CDCD19B
3D11793C
3EA0920C
BD8C27CE
BEA3E1F5
BDE8C4E4
BC423C62
BDBC7AFF
BD5F901A
3D9C659B
3D5F7025
3EE71D3F
BE3D2DB8
BD77EFF3
3DBF7FA2
BC85DC05
3DBA64E8
BE0EA071
3EB1E60E
3E3E1F05
3DEABB25
BE571B69
BE11032F
3DDB344C
3BF686CE
BCAD9446
BE954A81
3D1248A4
BEBB2CB1
BD883811
3D834DCC
BDF373EC
BE4C4113
BD8E8C83
BD8EB8B1
3E4491C2
3EBED98B
3EE079D6
BEE2405D
BE869C89
3EBBD425
BE89FB6E
3E8B0059
3E8CF9CC
3D43AB67
BD1120EF
3EB2BEA6
BE010122
3DC4DAAD
3C834464
3EA141F1
BDC00E29
BE8FF109
3DCFDBEE
BD5C4366
3E5D1A3C
BE0CF114
BE4B8ECE
BD998673
3CAEC150
BC79B4FE
BE7A9126
BE3BFC43
BE90BB9B
BE146EDF
BDA09D1E
BE487076
BE4D1782
BD582C0C
3D62D149
3E006500
3DACC28C
3E121D25
BE3399FD
BB92162A
3E0DDA4E
3E346345
BE08A2E5
3DAA09E0
BE30C206
3DD1D090
BDB92772
BE6A2F7B
BE39C7FD
BDC84FC6
3D81FD70
3D40B10C
BD97D108
3D921775
3C12B56F
BED455C1
3C187945
BD899A17
BE05E40E
BE07BD1F
BD035388
3E295A73
BDED7439
BDF22D6C
BE0F3A1C
3E4BF0FB
3E214AA4
3E14783C
3DE6634F
BDBDD541
3E2041ED
3E19EAFD
3D7E538C
3E079ABF
3E298D38
3E65C7D9
3D9434C2
BDE6C7AE
BD326996
BE51B9F4
BE4293B0
BD32CA57
BE339563
BE4F80C0
BE66D259
3E7E61B5
BDE5342C
BEB38227
BD23873F
3C371B2B
3E0F217A
3EAB7A7D
3F2994CD
3E34901A
3EE21D2A
3ECA6785
BD2EA889
BC33F592
BE01F7E1
3E423E74
BE4559AC
BE553EC9
BDFC77B5
3CBD05AE
3E63982F
BE6631AA
3D9466D6
BE2C8010
BBCA37DA
3CCCF82D
BE09D370
3EBB3964
3DB04E7A
3E737B3A
BE2C8FA3
3D858926
BD849DF4
BDC8A613
3D88B854
3EB997F3
3E723EB6
3D55CE5F
BDED1F55
BE2BCEBA
3DCB21CB
BE452D35
3F0318A0
3DE48DFE
3E96CC74
3EEB5FF2
BD4162FD
BEE066E4
3D169A23
3C39EB37
BE7BF684
BE57C9FA
3D25D55A
BE49A579
BE8F564F
BE82E4C9
BE38666E
3DB43B20
3CE0F76F
3EEA35ED
BE39AA07
BD146F6A
BE57F0B6
3E69F975
BE3BEF26
3E447A89
3D53DFDC
3E0E7521
BD64B1E4
BE3AF648
3DA13D61
BE81435B
BE10EC8E
3E784744
BE01A9A6
3DC78FC9
BDAFCEAD
BDA86719
3E22A0AE
3E3F6B39
BDFE050D
3B4C2E65
3D2E20F3
BE273B07
3E35BBAE
3D90AEBC
BDFA3F24
BE24A328
3D47BFF2
BDA4B45C
BDA630F6
BD8E596C
BD2B946A
BCC6F45D
3D611B4C
3E08AA7D
3BBB5C6E
3E027609
BDE85D84
BE4AB2F6
3DE5225F
BCB819A2
BCEEB0C9
BD4112B4
3E56367E
3E48B097
3E83E4C8
BD7B039F
BCF8B7FC
3E04D1F4
3E0D97B5
BCD2E521
BC28170B
BDE8976A
3C2A6225
3DC604EE
BDCD9048
3DC25EBB
3DFA438B
3D1928DC
3CC7BAD2
BE0A8998
BDC4507F
BE6A7C92
BE35258B
3E2417CA
BDAF462B
BD410414
BDBB6947
BC7BE109
BDE41717
BBDB5821
3D39383C
BE56214A
BE283302
3DCA3493
3E1DAA3D
BDA59531
BE25AF58
BCD19CF1
3D8FAEE4
BC9DB20B
BD82D0E5
3DF09E3A
BDA3E127
3C799225
BE067D31
3DE13D2A
3E052249
3E6C2D21
BE27E123
BD38559B
BD87AD14
BC8CDC77
3E0E7325
3D1820F7
BE99686E
BE97BE76
BEF83969
BE2A6772
BE057324
3C85BBE0
BE203182
BDA8A618
3D6301BC
BD1A0A6E
BDA51A3A
3D9901CB
BD3DE708
BE360AB7
3E89F8D8
3D4019C2
BE6DF61C
3E7298FD
3C556325
3E0F61A6
3E308FC0
BBF55A43
3DD590FF
3D476C4D
3CFBCA5F
BE006B9B
3E5EBC4B
3E887BB8
3DBD0D12
BE1EC5F6
3D7C7B44
3E790B26
BDD5650C
BDC31292
BD570C0C
BAEFDA12
3DE604E3
3D6FF726
3E0FA2E0
BE10E269
3DC5945A
3D3984AA
3D6AB2D6
3D297487
3E126DB2
3E3289D6
3E19DCBA
BDE03A16
BE056496
BDD937F3
3CC86C07
3D360620
BDE27795
3D8C4BB5
3D847049
3DCE44B2
3DCCB020
BE1C7F7B
3DAB031E
BB922927
3DD1992C
BD2FC35C
3CD07EF8
BE1999DF
BCA56D5E
BD004E79
3D8D8DD1
BE1A2FE7
BE09589A
3E307E24
BD013DEA
BE0F32A0
BD873D24
3E277C09
3DB02D73
BCC1E6B4
BE1DA81B
BD861B18
BD9560EE
BDFCFE8A
BDD6CCA5
BE0DA0E0
BE1747BE
BD69E400
BE141032
3E1A496B
BDB57A91
3BAC095B
3CD26A0D
BE07E9E0
3CC77009
BE3A4754
BD652D4B
BDAFCF85
3DDA4E45
BE222C42
BD95EE63
3E2F7AF7
BDDF34F7
BE464E9B
3D87A15C
BF04671C
BE3348D7
3ECEBF51
3E123BC9
3F062EBB
3E3D7520
3EEAF45B
3E1B9D20
3F830AEE
3F02762C
3E8D1762
3D74F400
BF0E6300
3D261413
3F1E64D7
3C496674
3D9218A2
3DB019DD
3D08A079
BD89817A
BE3BCF29
BDA29BA4
BC208610
3D648577
BF1B731B
3C873C60
BEF27B7D
3E9CDD17
BDEF2412
3EA2977C
3D8A30B8
BE289462
3DC9F17F
BE133979
BD2298A3
BF15D1A8
3E7F5A15
BE019F9F
3D9B61B5
BE29FC52
3C97274D
3D7CDA84
3D6FABBB
3F57263E
3D8630DC
BDAC544D
3EAC87E6
BD574356
3EA38F9D
3E68DC53
BAF3426D
BD4262D6
3ED093CD
BE1FB68C
BD00CCD3
BEBBEAAE
BEA430CE
3DB0C64E
BE1C3A84
BDC352A7
3EA33757
3E93C00D
3EF37B14
BD91DBD8
BDDFC791
BDA5D2FE
BF18CA1C
3DB33F0C
3DD7E71F
3DA2D889
3E070C15
3DA021F3
3ED59924
3DFD75D7
BCA63DC1
3D6F9AF1
BE9C72C5
BD9968DF
3EDF0295
3D56C5A1
3E4856FF
3CC47867
3D7D93C8
3E3A7E70
3EC79357
BE31F068
3DB20C91
3D91E24C
BEA42522
BDB561EF
3DA95EE6
3DD8A247
3E5E61D4
3BED4CCD
BD101612
BC4DA123
BD881DAD
BD88F872
3E001E3B
3D0DF00B
BE1CBBB3
3E0BBF99
3C87C6E5
3D88AF5C
BCF4CBA5
BD441379
3C0F33D6
BD7C62BD
3E19B986
3EA9EA78
3E0B65BD
3EF11C6B
BD48A962
3E15657A
BC0954D7
BF2DC219
3DA40422
BEAAA735
BD8213F5
BE721825
BEBC0D2D
BC0827B6
3E93FC54
3DBF66CC
3C922433
BBF848A2
BDBE607F
BCDCB1F2
BE335095
BD227403
BDC4B173
BD0BB532
3D487B27
BCBB1101
BD70FA08
3DC7AB6D
3DB34705
3D67E151
3E14CB36
BD873006
3D11FB68
3E00C1AF
BD81D629
3D762B4C
3DBBF0F4
3E089B8F
3D133143
3E1FFBD3
3DA9439A
3C3FB107
BD6B9684
3D60A21C
BD98981B
3CA11690
BCEB24FD
BE030B3E
BD8D22B7
BE163CC0
BD5DC047
3DD8AC3A
3CA9AA53
3E09CEF6
BD899D38
3E26C518
3DF1852B
3D8F686E
3E0B6B2C
3E2A1E12
3C10FDD7
BE332453
3E1D3C07
BDD20279
3E15D2BA
BE03EE87
BD930F9F
BDCFAAB7
BD9EE132
BD9682E5
3DA9B5F9
3D817946
BD827057
3DF38317
3DBDBC2C
BDA9709E
BE14FFD1
3D2E1E17
3DD0F767
BD45C79C
BE1D2DE4
BD98BB2A
BDE9D4C5
BC8873D7
BD07C80F
3D4F7105
3D8D9B04
3D834A57
BE30F9E3
3E2BB4BF
3D83FD49
3D8001D4
BCFE5743
3DF87429
BCCC7A32
BD27D424
3DADF057
3DDD7647
BDC17061
BD9758BA
3BDF3013
3DC76F8D
BE02EE2D
3D1F1E9F
3DAC516A
3DCC814A
BE1BD06A
3E2EA1D1
BE67C406
3DB43F72
BC71AD7E
3D79647A
BD5FF634
3D239607
BBA2B884
BD7013C1
BE030B76
3D87BF09
BD83EB29
3CBF0A97
BDFDCA08
BD2E08E2
3CEDAB0D
3CAF20EE
3DAF143C
BDF4FA18
BE101340
BE1590A4
BD8E6470
BE28EB70
3D95043B
BB1A9170
BCB1B5B6
3D74BD94
BDE08590
BE0F3491
3DC4C3E6
BDE26FED
BDA4E92A
BD3A0A33
BE12AC9E
BE0C233D
BE3B167E
BD07A901
BDF13A01
BD20708B
BD456BA5
BD60D117
BE2504CD
3DBCEBE0
3C8F3E75
3E081642
3DB10755
3E149C54
BE2901A9
BDA38392
BE07E61A
3DAE4817
BD9DA856
BDF29931
3DC09F6B
BAEEF2A4
BDD69821
3DB2F61C
BD53B717
3DF6A3D0
3D9CCE3F
BCA0EDE3
3DD4FE47
BC5F9B3B
3E1523AD
BD8B6A82
BDC56982
3D8A75DA
3D772529
3D7F28C6
BD1B143F
3DCD2630
BE148F38
3DE7FCF2
BD9B54CD
3BBE5ABA
BE1AF269
BD36B463
BD274A1A
3E2843A5
3E07D464
BC8E05FB
BDC3EFAA
3E2715EE
BD046ABC
BD847A23
3E1A03F1
BE266B59
BCC8CFDB
BDAD9E42
BD6E5E25
3D4B6C94
BB8244AC
3D0F0054
BE404C5D
BDC4F883
3E100E43
3D594CB8
BB5F7ACE
BDC4D819
3E26CEC3
3DB68214
3D4787E3
3E1B3F1B
BE001FF8
BE1400D7
BE18EE97
BDB505DE
3D9D6932
3E08D520
BD857249
BB809647
BE4386D4
BDFA3EC9
BD136E5B
3E1A8A3D
3DA6C550
3D40EB7C
BD8AAC58
BD440680
BD978785
BE1EEBA5
BCA5DE03
3D56E3D7
3E262A48
3E14D274
3E1DE6A6
BD230010
BD600628
3DBE5B20
3E059BA8
BDA11A2E
BCCE585B
3C21D806
3DD5E9A8
BDD89934
3E17F6B6
BDC3B31D
BE0F7AA2
BB9C04DD
BE0B0880
BE006374
BE194D16
BCD542EE
BCB123AE
BD96352B
BD9785F2
3D464EA1
BE22876D
BDB3ED96
BD7C512F
3D558D18
3DCB47DD
BBF98893
BC419081
BD205D09
BD274533
3D0E5FE0
BD199CC2
BDFC4552
BBE392F8
BE170772
3D032C4B
3D2DD6EA
BE6AF326
BE0DF98C
BC89D663
3D70BA5B
BCA8FC1E
3D149093
3D8D1237
BDF0D2E2
3CE86EE2
3DA0DCD7
BE13AA74
BDB721A4
BE0166F5
BE2EF3C9
3D0AC5BD
3E1A105A
BE00768C
BBA5B823
BD3506BB
3E0F58AC
BD12BC1D
BE1E7E9B
BDE476B4
3E2E17F8
3D457248
BE346307
3D48DCC7
3E14D3BE
BD01A31F
3CA0E323
3DBD806D
3C04A4B0
BDEA983B
3E27F504
3DAD79C7
BD7729DD
BE16C4BE
BD3B6D88
3DE70245
BDEA35EB
BE117C94
3DBCB8F2
BB968C31
3D0A7F6B
3E182246
3D6F4A8C
BD9B6C97
3D17031D
BE2E600A
BD82B62F
3D7540D0
3D90583D
BDFAB12D
BC58FC92
3DB98BB9
3D3C07C3
3CD17529
BE00F169
BC6EDE0E
BDF2EEE3
BDC43C66
BE276815
BBF24021
BE052551
3DA93686
3D932718
3E10BE8E
BE16EFE3
BE15CF63
3E027BBD
3CDC59D8
BE20611F
BBB2C22E
BDB57CF1
3E0A78A9
BB67464C
BD84FAF2
3D8C9FEF
3CB8FE28
BD5662D2
3E0B7E40
3CB93D1E
3C8373F4
BDED578D
BD90B7B4
3D2799B9
3DD58E8F
BE22B5C1
BE0F5E47
3DEF192A
3E339E92
3DA1FF08
BD74836C
BE2D5457
BC6BD5EA
3C2B03A0
BDAFE938
BE0D8235
3E357676
3D48E97D
3D443924
3D811B1B
BD163616
BE1FB270
3DC467F2
BE1D34C9
BD3E5B11
BDDF658F
BBA8A5A0
BDB5E0EE
3E1AB68B
3E3F40D8
3E1773C9
3DA47731
BDDB0CB2
BE15D499
3C247CEA
BDAE5928
BD8FD6D1
3CD75784
3DF91057
BCBFDAF0
3E348BA4
3D958D41
3DAB0148
BE323E1F
BDD3E420
BD47F20A
3CF8C40D
3CDE29C6
3DF20D21
BE570EC9
3A3F4935
3DE51FF1
3E3ADB3C
BE39D8FD
3D8D9EF4
3D8EA6C3
BCB6E6CB
BE0B18CD
BD8F152B
BDA07BF8
3E385196
BE1960A9
BBC27535
3DDAA917
3DC76EB9
3E098942
3D884BE5
BDDABB53
BC576218
BE317C5C
3B896A86
3CD90883
3DF8E0BB
3CB1B60D
3DEEEDD9
BE51091E
BE00CC99
3DBD3459
BE4F21D5
3DCECB57
3B913E52
BD237EB2
BDE6B370
3CCFD774
3D193957
BE518078
BD993FAF
3E5794ED
3D1DAEF0
3E1AC8CE
BDB1EFCC
BDB65AEE
BDD24038
3DE4D8C9
3D1B0B9C
3D7E0029
3E3F2580
3E4FEA08
3E92C4D7
3E92C33E
3D9A6F12
BBDE4091
3E17F748
BE305CE6
3E4A25D2
BD350F4A
3C26F0D7
3E2C63D7
BDA19D89
BCB8654A
BD6F3E8E
BDC42964
3DF99936
BDAE4834
BB01E74A
BB669906
3CC73392
3D9717C0
3E0B289A
BDE7A3B0
BE1D2B38
BE1EF8BC
3E336D8F
BD3E52B4
BDA2274C
3DC090FE
3E2410F4
BE090FF1
3D509C87
3C0EDEC2
BE03A692
3D6196AF
BD2400B1
3E27472E
BDB50524
3DBE3EC4
3E4AC0BD
BCA6CCFF
3CB6E570
BE0279AE
BDC0BB22
3DC8A076
3B679816
3DA974B9
BE04EAEF
BE17DA27
BD75754A
39E73702
3D8DE30F
3C232620
BD9A9444
BCCD710A
3D2D814A
3DB310FD
3E0E21DD
BDC33F66
BD8335F2
3BAC23C9
3DFA4816
3CBD8DA9
3DEF2D7F
BC2378B1
3E3BF37E
BD9E3A5A
3DCF6D16
3DDB9370
3E345F1C
BD7C59F4
BE350B40
BE0803CE
3D6FC1F8
BD039ED6
388E3EC7
3DC5812D
3D0D879A
BE02A1FF
3DCD55D0
3E2D638D
BDCCBB3D
BD1F6E74
BE1548C9
3D829ACA
BDC3626A
BDA59AD8
BBCA85C9
BD253C4B
3CBE3366
BDF99E08
3B64D515
3CCDED4E
BD831410
BC66C4E1
3E1E709A
3E007AA6
3C90B285
3E0D50FD
BD9884DE
3B9A0B95
3E2085AF
BD761AFC
3E109E76
BDCF267D
BBC43467
BD60D462
BD8561C1
3D61B788
BD26CAE7
BE0A571E
3CEC2140
BE3352BB
3E092783
3DEAD76A
BD73BB85
3DAAAA72
3DA45B10
BE2444BC
BB933BED
3E09DB36
3E2834CD
BE26DC4A
3DF2F832
3DB9455B
BE1A4D20
3CD54712
BDF56674
BCC466C3
BD7A8E9B
3E27E008
BD97B61B
BD80EA72
3D3DAA5D
3DDF7577
BD13D24B
3C4D1FE9
3E303BE0
3D7A74F7
3E13D8AE
3E3485E5
3D584B29
3DEEE3D2
3E16867F
3CA551D7
3E1B572F
3E0B5C3E
3C6E9FCA
BD6C2A31
BD767542
3DD0E774
BD154363
3E2BD132
3E16931C
BD6A75C0
BE1007D4
BD9701D6
BE3B2709
3E09C7C4
BCFADA50
BD9D33B8
3DC57C6F
3D9D6F9B
3E0A94C5
3D769A4A
BE2123FA
3E2D8CF9
BDE9B88C
3D5AE4E2
3CA30759
3D9EFE99
3E09AC3C
3DA9FF06
BE1F5ECE
3DFCBF7C
3E2EE0E3
3DE01A6E
BD0C3152
3DBADE54
3E218A4C
BE0B230F
3E04F43F
3A57D0CE
BCFD3212
BDFCFF84
3D557BAF
3D348CC6
BD6412D0
BBABDF76
BD2460CA
BE050A76
BE019C94
3C2D210F
BD878399
BDEB21AA
BB409B72
3D523118
3E0D5AF5
BE032870
BDAAE408
BE1C2966
BCD20834
3DF23208
BE3A3E5F
BC2D4A27
BCE8EF77
BDF01494
3C4C46A6
BDAADFB8
3D58D87B
BDD44E48
3E3B06D5
3DFFB84E
BE537FC5
3D85B725
BED3022C
BE08A670
BEC6DD6D
BE330FE8
3CD78248
BEA035BD
3DD8CADB
BE3FC448
BC8880C7
BCA58F46
3DF9AC84
BDA7F6D9
3DFFBD62
3D936C97
3D959B2D
BE4EF915
3DCFC212
3DAFCACD
BD5DA9A5
3C89AB2E
3E27E8E1
BDACA7C6
3D0DABA0
BE1AA196
3E6F10B9
BD80F873
BE1975A5
BD305187
3DFDEDB5
BE74FF13
BE3556CF
3C106E4E
BE249808
BE46D6BE
BE22B8C4
3E48B0A9
BCF3EE44
BD2B3D3F
3DC5A069
BE81F201
BD47549F
3DE140EE
3CB6FDBF
3E38FD3C
BD195D72
3D3EC2A9
BDB98F6B
3DAC1564
BE4F3915
BD6E6B20
3E420E5A
BC6A82C8
BC90A04C
3DF9929B
3C096EE1
BD4790D2
BD87433C
BE046898
3EC5DA11
BD9CB93D
3D240B09
BE03ECFC
3E100BE8
BD0CCE9F
BDCDAAB7
BD52F3F0
3DEE4AF3
BDE69F64
BD8C7A57
BEAB934B
3D251CEB
BE261D74
3D2E5C61
3E0BDA67
BD9CAACA
BCA97C5E
3E512CC9
3D0C32D3
BE2FECDE
3E193186
3E2CE379
3D89D354
BE0D97A1
BD53EB06
3E2594A0
BDF83D31
3DD0AEAF
3E6F0480
BE1D2860
3E9A3574
BE489F9E
3D7AAE6C
3DA1E244
BA9EE89F
BE0B9BBF
3CB8E33A
3C5804E3
BC4A8961
3DBDBC12
3E839DDC
3C9CF270
BE6B5226
BB9036A5
BE9AF943
3CFB6909
3E5A2492
BD1106DC
3CDFC419
3E5B9470
BDBFC6B8
BD2300FA
3DBE621D
BE2DD7C6
BA8278C2
BE6A0524
BDD7B93F
3DE54881
BDF6108C
3DE041ED
3CD727CB
3D48687D
BE0C5846
3E0D40A2
BE0867A7
BE312B91
BE28C010
BC28DFD7
3D871777
3D9B57AE
BE208E4D
3DDA083B
BDB6F2C6
3DC369D8
3C1EF3CD
3DD08401
3E29372D
BE18783E
BE214373
3B8337EC
3E1AF480
3C8E5B39
3DED4AC6
BE1719FA
BD99B80C
3DA6F518
3E1EE155
BDF7EAFC
3E1A657B
BDCA5111
BDD4E912
3DC31C70
3E0694D1
3CFCD3C4
3DD4822E
BD5CE368
3DBFBF42
BD518C3C
3D1D0298
BB67FB4E
BE05302C
3D9D0485
3E1F6EA3
BD6F3B3D
BDD04B51
BE10F74B
BCCE6F9D
3E046615
3DC5720B
BD4DC3FA
3B9EF248
3DCA1B2B
3E455202
3D0C7F9F
3DB7D1C3
BD8E0727
3D1234F5
3E193169
3DF0C91F
BD47C546
3E1E6ED5
3DDA6525
3DC203CE
3E03FFD8
3E1C0DC6
BE01CA6C
3E1D60D0
BC50094F
BE20058A
BDAD5145
BE0639F1
3D5F7FE0
3DA7C173
BE21CE46
3D0D4557
BD8A8E13
3E088D64
BE3250F0
3CCAB1DD
BDA372C9
3E0B825E
3D9E9FF1
3D36F595
3DF30CBA
BDEDF29C
3D868BF7
BCB20B16
3CB92D4B
BDFB0849
BD4FCD78
3E3205D1
BD8EF328
BE16D05B
3E459F90
BC920808
BD828113
BD8129B9
3DFD41AD
3D80EDDB
BD84235D
BB5001B0
BD1973BF
3DBF00FA
3D826F54
3D4ED00C
3D4E5C77
BDF30F9B
3D078058
3DDDBE34
3E0632A0
3D81CF76
3E1408C8
3E24DA13
BE2D7CB3
3D5BCD9A
BDF8F0F7
BD34A6DF
BD238B59
3DDADC36
3E0B1390
3CA39B85
BD804559
BD95982A
3D2A9DA0
3D12B8A2
BD7AEA32
BD02B23D
BDA7570F
3D0878F3
BE5FED00
BE4A6C28
3E52D5A3
BD98C81D
3DB98663
3B32D820
BDD66288
3E39165E
3CE3DD93
3E1D39B2
BE8556CF
BE2344A7
3DECA48D
3EB2AA09
BE6119A4
BD98650B
BD7C2B1D
BD6E040F
3D029D50
3DA15E98
3E6B6C09
BE07F65D
3DE9E6A9
BE109100
BCCAD83F
3D2FF84B
3D30633E
BD859D37
BE40699D
3DCF2E3E
BC93B2D4
BA035EB6
3E60E2DA
BD292BC6
3C8CADAA
BC8C337F
3E2081FD
3B2D5BF6
3DABC072
BE3D70B2
BD4CB0FD
3CC6D28B
3CDDD30A
BE24C633
BDC2EFC0
3E4AED75
3D3F55A1
BD1507A5
3CE7DFD2
BD8D3A25
BE4BF324
3E1104CD
BEAC8CEA
3E904BFB
BDDD293A
BDA32283
BB291674
BE71AFB5
BE3E755F
BE842D31
3E51DF8C
BCA5B468
BE8999EB
BE42F74C
3DB9E215
3E64092A
3E444A85
3E19536E
3BE9A34E
BADA260B
BCA74BA7
3E3EB1E1
3BEC8429
BD1E3305
BE099789
BD94DC68
3C0A6447
3E061300
3DF47C45
BE08C157
3D63152D
BE6E2766
3E5D615F
BE12F77B
3E48C8E5
3CB89445
BDDCFA4B
3DB30CD0
3DDE891B
3DD7FA35
BDA03A06
BE220E26
3E0E9A25
BE4298B4
3DB24DF7
BC8BCA85
3D8426A5
3E42B18F
BDF26A18
BDBD248B
3BC1B88E
3DA61A23
3A3C8073
3DA6AE8A
3E19FB5E
BD27C422
BE500082
3CB7346A
3DE0209E
3E4F7B4D
BE10F1C4
3E2DD809
BE3470BE
BE16A894
3E334737
BE143346
BE044177
3E4456B4
3E3BE8E8
3D8519D9
BDCF8F2C
3DBD98D7
BAC99B38
3E67309F
BD6BB42E
BD7BE7EF
3DB650D5
BCF095B3
3DC3E411
3CA0B309
BE3E1EF3
3E381A0C
BD710598
BD1EA035
3DA24423
BDAF1C40
BE02C4A8
BD8C8FFF
3D32FF6C
3D98649F
3D0AEBFB
3DF5B88F
BDC77895
3E2E647E
3E23F6F7
BD033F39
3B9F5DEA
3E1879C6
BE2E6C96
3D0141B2
BE389374
3DC83230
BDFCA5E6
3CADA8C3
3B0890D3
BD3D936F
3E1CFF73
BDA57BAC
BE27D44C
BE0CBFF9
BE2C00BB
BD9159D4
3DFC3D17
3D72D323
BD9E7002
BDB07014
BD5C6A70
BCC88379
3D23457B
BDF0D0AF
BDD6F9A7
3E239C82
3E0E138E
BE15AAF9
3D7CC547
3D80BBFD
BC14868A
3E02066B
BE05FA75
BDF74E31
3B4820E7
BE14A6F9
BCCC034D
3DF53C90
BD10D5B4
BC7D3EA3
BDC02251
3CF2F31C
BE04ED06
3E1680A2
BDFC2E1C
BA271405
3E200D65
BDFE5D2B
3CD762C2
3DE55CB9
3E0767CC
BCF3DB31
BDE98ED2
BDD5AA79
BE14FF17
3D4BE5B8
BA4D5772
BBF73F8C
3E00D8CF
3D9E1E9B
3D722EF0
3D572995
BE0B5840
3E1B20D2
BE0C0576
BD827AFE
BDABA91B
3D624E33
3E020021
BDC3569E
BE19539D
3DBC84E5
3D6F5D20
3DE3CBCF
3E34B118
3DF71C2A
BCDC8435
3CBCA80D
3D80B20D
BE0BC944
BE10C404
3DE1FEC3
3DF59AF0
3D6C7AB8
BC9357FF
3E352DB9
3D9DA9EE
BDFA5575
BD15820E
3D4CFDA8
3E0E48DA
3D304E3B
BE3260BD
BD91D5D5
3DBB280A
3E1851AA
3C8B4B70
BDB86D34
3D06E0AA
3D20BA1B
3D354F66
3CB700D8
BD67CAFB
3D8A7293
BE078715
BCCD2623
3E18DFE1
3DBB812F
3C50B6BA
BDD1C67C
BE0BF4C0
3E6E05AE
3E50556F
BE3A6554
3CBC4458
BBF7EE72
BA13CBAD
3EA07127
BE4D48AB
BC850C40
BD92D88F
BB88CEC2
3C0B1623
3DE4CFCF
3DED4938
3E1EF73A
3E4F3FB6
BE8695DF
B7C6F4D1
3E21DD28
3DD8BD37
BDF0420B
BC3B95F9
BDB6D51E
3EC5489B
3BF44D66
BE0AFE33
BE2C749C
BEB85FCE
BE0837F7
BE31F2C6
BD124660
3DD7BEC3
3EBFA53F
BE1BEF4B
BE2F6F02
BCD599E3
3D870681
BD57756E
3E44A5E0
3DAEE32B
3DD4C1EB
BDBAF93C
3EA65888
BE7B4101
3DAF5AEE
3CDC31C1
BD0F5F4C
BDBEEDBA
3D840004
3ECE3EA5
3D23E0F0
BE026D63
3E1C29E4
BE50540A
3CD360C5
BCF101EB
3D8725A1
BE08B15B
BCB398C1
3C92CC7B
3D680534
3E5DCAEA
3D0F37D7
3E3D696D
BEAEC675
BE5F98F6
BBF80E9C
BD903965
3BD2A071
BE7D8781
BDD425E4
BE23C0F1
3CCAB9D2
BD11BE5B
3CF27828
3E885827
BE5B0153
3E30145A
BE5003AD
3E0A2B98
3EB7AB4B
3E32D0C7
BD12C928
3D65BC23
BE19D049
BDF05BAE
BE172CEA
BCB0160F
BD7369B6
BB388D19
3C974187
3B78B242
3DCEE939
3E114F13
3D21E6F5
3DF31B83
BB6D2339
3CDCCEF3
BDAA7879
BDC7FEF5
BE221024
3E5AF60D
3E207D07
3DE6E3E6
BE08AF14
3BD15AD9
3E942F7A
BD95A9C1
BE031998
BE463DBA
3DEC5C8F
BEC7B598
3D53C789
BCD02B4D
BE207312
BEBFD07D
3DEC0BD8
3D723FD1
3D5D919D
BE1411C3
3DC33BCF
BCED294F
BE867713
3D905F69
BE04229F
3DF9BD13
BD197D93
BE154096
3DC0424E
BD1CA64C
BD0BDF1F
3E6A670D
BD8455F6
BC2F9B20
BD9ED313
BE6BF95A
BDAFB65F
BEA336F5
BD568329
BE476CCC
BD7EBCF6
BECDA31A
BDB3B6C8
3E86409D
3E343E23
BE133840
BCE65F63
BE380622
BE5B90BA
BDF80124
BC1142CC
3A0448DF
3D6D0672
3C03A60E
3D594B4E
3DDFB733
BDCF1A8E
BEE48537
BBD49D71
BDE59F4D
BE238F6D
BE2FC9D1
BE1C65A5
3D5F131A
BE0F9EFA
BE3D3732
3E38761F
BDB1A99A
3D6A4715
3D7A6FB7
3C974D6A
3D9691E3
BEB2B0C9
BDA311D9
3D380788
3E49FCAC
BDAE68E4
3E68DE40
3E75223B
3E84EB4D
B9F16FC8
3DE49CA4
3E5CBFF9
3D95558B
3CF7597F
3E902020
BD235A3F
BA81C075
BD94620F
BE809247
BE12AA91
BE214DAB
3DB60516
3DCF2C98
3DBAB3EF
3D672679
3DBB1DE9
3C8EB264
3E3D339F
3D56476E
BE66A42D
BE4171DE
BE158892
BCCD09C6
3E281DEA
BCAF340C
BE3A525B
3E2B174A
3DB00F26
3C39FE0C
3DABE326
BE27B10F
BE263A1A
BE07BFA2
BC6EB7B2
3E3A212E
BE48F6A5
3DC5FBFE
BDA7E832
3D4B12A4
3E15C6A5
BDEB83AC
BE09E87B
BDC86EF1
BC0E9408
BAB5ED39
BB9E065A
BB7F7310
BE4A3303
BDA6CDA1
BDD55A55
3D951E75
3B42259E
BE1DEB8E
BDEAD3D3
3DDBBA67
BDBB61CC
3D8988E6
BE44095B
3B50E108
3B3E84FA
3E243C62
BCBCE115
BE1DCB73
3CCC48A1
3E14AB96
3E41115E
3D643EFD
3E7ADDBD
BD665A40
3E8999B9
3D6DE906
BDB66AF8
BE2A8870
BDD43983
3E0FA839
3D5826F9
BE439D04
BDC0DDE7
3D89E210
BC5E62DA
BDAC79E5
3CEF3624
BE266749
3CE1276D
BE1EEBAB
3D86331F
3D1283A9
3DBC8366
3D064BB7
BDE328F8
BE1DADDC
3E0D0513
3CF28D26
BDAB5275
BCD11DA7
BD84EFC5
3D7E6503
3CA9B55C
BE0BD181
BDBEEE4C
BD6984B6
BDA014C0
3E1878AF
3E15A4D5
BDC849F9
3D41450E
3E0020FC
BBD9C636
3E2EF8BD
3D3DEC09
BE237378
3C4D0B72
3DC79129
BDB7D2B1
3E056508
3CCEBD1D
3DF69EFB
3D0BB4D5
3E184CD8
BE00F977
BDA52645
BE1FCE55
BC368E8B
BD8F0D82
BD19E507
3DF2839F
3D71D08D
BDB7EB59
3E08B0F6
3C10ACB1
BE384E50
BD072D14
BE26A5A5
BE01D46E
BDE464E7
BDB970DA
BE2979FF
3D564F43
3D1B1575
3E138ECC
BD9B9A8E
BD27DC84
3DDFCFB4
3D6FC38A
3C8E4384
BDB07869
3DCAFD7B
BE028755
3E008A80
BDD13010
BD88F9D2
3C914681
BE0D3B33
3D852330
3DFCF8C1
BE0B937B
BE06C6F5
BE217214
3DDA7DF6
3B323998
3CBC94CC
BD6CDB76
3E216345
BDA729CE
BDC8E671
3D3B7471
BD4FF1BE
3E2D86F7
3D59FC04
3C97C76E
BD45E697
BDA119A7
BDECC0A0
3C1BAFEA
BE23FCA8
BE11554A
3D5DC745
BD722FA9
3E29E9EC
3E13C1C7
3D803F88
3CF076F7
3C269368
BCCDEA29
BE01BABD
BDE67254
3E214616
3DE709C2
BE2241A4
3E17450A
3E1170EA
3E0878C1
3D29F9D3
BD3B2D73
3CAD00F0
3D984275
3DEF1FBB
BE17692C
3DA3D043
3DBFA9F9
3D188035
3D4DF1CE
BDAF2EE5
BDB91F3A
BC8991FB
BD91789C
3CAF0C7E
3CD26715
3E80DFC7
3E292381
BD85426B
BD23F0CC
3C5AA74F
3E5983EE
3D7430A3
3C4EB966
3DD8782F
BD42D495
3D5FB154
BD5E20CF
3E7D60F7
BE2C849D
3DFACDA0
BE2C58D8
3DC24092
3DC66F7C
3D4A7EB7
3DC4DD00
3D05BE54
BE3D33CE
BE877A69
3E177D08
3DA42B2E
3E5B2342
3CBE3930
3DE3D95C
3AC396CB
3DFE61D7
BDFAA391
3C94BCC3
3DB148CA
BD9E3FDF
3E8D126D
3C340E71
BE3F0242
BD3B7B5E
BB13A455
3EB1C8BD
BE261214
BCE0C003
BDA7F0E2
3D8E612B
3F054B1F
3DDF86CA
3E1C6D3D
3E481156
BC8A52BE
3D7BD2F5
3E1F8545
3CB89BC4
BD011F5E
BDA4521E
BE14B291
BD8D4A10
3CC0C763
BD8ABE94
3D8D8F6D
3EB2A047
3E650FB2
BC1FEE97
3E49B242
BE243B59
3E1D2F80
3E35CB22
3E57DA45
3E8563C8
BE39AC70
3D9FFA0E
BEB8ED92
3E48BFA3
BE8B0E27
BD8D7931
3D08A50F
BE6D6C69
BE29A262
3DDBFB96
3D3FAB58
3D857906
BC32230B
BB97C071
BDEE7552
3E016576
BD676371
3D49F01C
3D4E654D
3DE478D3
3E073E6B
BD91765D
3E6B18CB
BD19FA5A
BE266DE7
3D36F117
BC333C83
3C65719B
3D14B6F7
3E0F9045
3E23A441
BE447A04
BE077942
3DA5060F
3D41CB93
BE1B0836
BDBECA55
BE3454C9
3E47437B
BB392764
BE546323
BE78409A
BB719AA8
BD725343
BD3DA85B
3DB25C65
BDC4F8ED
3E0AF3D2
BD9773EB
3D52E222
3EDC4540
BE303224
3E213B6D
BDF5ED21
BE3069A3
BD3003E8
3DE0D803
BD731E5B
BCBB1708
3C482052
3D8D0116
3B66A31C
BE8739DC
BD396DB6
BE01EC5B
BCC32243
3BAAB028
3DDE4EF8
BDD3FAC0
BD8CDB0C
3E43239D
BD4C7A55
BD84282F
BE183102
3DEDD0B0
3CE38623
BE4D6872
3D6FB378
BDC7056B
3BC140BE
BE19B5B1
BA3182AE
3E72FC40
BE46D8B1
BE252F7B
BE976399
BE3B5047
BB0647D4
BCD1D637
3E09BFAB
BC8EDD3B
BD963087
3E88296F
3E0309E9
3DFF2F11
BE491476
BD7C00D4
3E4F6E2C
3D0184DA
BE55E82C
BE496B35
BE2E7CF5
3E374691
BDE78828
3E830C6F
3C05AA39
3BFEA139
3B7CBF45
3E0FEBD4
BCFE1DF3
BE1FDBC0
BD340CE0
3D844C90
3D9D9927
BDA4B9CC
3D43864C
BE6AAFA1
3C100144
3D39C0B1
3D1F1925
3E1C822B
3DCB0690
3DD4B2F2
3DA7F833
3D944965
3E311871
3E27013F
3E28B3D6
BC9B87D8
3DC21D0A
3B5CE433
3DAE3E16
BCC599B8
3DB5EF92
3DDB7E6B
3D3C46A3
BDF2FA1F
3B614900
BE0D9667
3E2F0AF0
3D0818A8
BD3CBBF3
3CC5EFE1
BD6D474C
BDB14420
3E0B89DD
BE2401FF
3C613D30
3D75ECD2
3E034115
3D853A6C
BC0FDD50
3E21D94F
BDDBDE84
BD35D4CF
BD3C7C9C
3E156959
3E1D52E0
3D7CCDDD
3DDE032E
BDFB8CAC
3E147D63
3E1BFC33
3DAADF6E
3E2D1FF3
BE160194
3E0EE924
3D355918
BE137AC1
BDCBB760
3CCBEE92
3D35F085
BC0C1226
BCBE0DF5
3C5156D9
3DF7C3A9
BD9E1A0E
3CD26836
BE25CB0D
3E1C2CC9
3DAAA782
BD6B9F93
BDBCB6B1
BE6EABF2
BED286C9
BDDE3BE7
3E0E2F82
3D38DE57
3E8F5699
BE509444
BE4C3F21
3E5C8037
BC27A584
3DD55696
BE81006F
3E991AB2
3B314AAF
3DFF97BF
BC85E375
3EF6F6AA
BE9F004B
BE338A66
BE875AC4
BC875CD6
3D310071
BD559EC6
BECCB0BB
BD7C6370
BE1AC7BF
3D938F62
3ED07512
BD15C2F3
3D9274E1
BEC32DE2
BDD86DD9
BEA70194
3DD68422
3DD3BC25
3D63BC16
3D72620F
3E77CA69
3D6D61B0
BD629023
3CBEC31D
BE5F0466
BDA976F5
3E237DC2
BF040AC0
3D47DC13
BE7C6630
BC5602DD
3CDFD180
BE03B218
BE986757
3EABB624
BF01AB79
3C895094
3D382835
BEE07E8A
BCDDEE3C
3E1B885A
3EA0F739
3E916CA7
BE258D05
3E7C5913
3D161B2D
3D05EB4B
3E3DAB1D
BD26FD66
3DDD7F2B
3DDDB072
BDA3B0F4
3D060B2C
3C21F192
398A3E76
BD953694
BE59DBD9
BDC1F00F
BCD718AC
BEAA8B12
3E183A05
3CDEDCA9
3DDDD95D
BDFA71D9
3D80A6AB
BDC46DA5
3B7A2039
BE0049D7
BCCB1E55
BDD10F53
3E202D2F
BE4F1867
BE2CD1F8
3DDF2449
BBA2C54E
BDAA9E68
BE3EB9BD
BE3DBAC3
BC0232AA
BD20BBFC
BE24B316
BE405453
3D41D6E6
BE460DE7
BF024DBB
3C55E33A
BD6987E2
BDF2E4C4
3C9F343F
3E5FA47F
BE104DC2
BEE5A67C
BD8764EB
BEA10FF1
BD9D8CA9
3E2444C4
3DB423A4
3DB0B256
3E3C1493
3DC101B6
BCC725F9
BD033268
BE82A332
BD11B6CE
BDB131CE
3DD57026
BA42BFE3
BE034BB2
3DD1CCDF
3DB54E13
BE386060
3DD047C9
3D53A384
BD74CDE0
3DCF2662
BD3DFD83
BE2A4732
3C060022
BEC6C8C3
3CB0DFA8
BE907354
3DA95871
3E8F0755
BDD57D54
3E147236
BE2D3818
3DBECA8D
3DD0985C
3D3760A3
BE00885C
BDE93F48
BD887F05
BD4DBB5E
BE98CD8B
3DC0432F
BC625BD4
3DD261B6
3C5BCFEF
3E8742EB
BD7007CB
3A7746FF
BE386503
3D7AB5A7
BEA049F5
BE2BB28C
3CC2D6E9
BDFE8FC9
BE3C60D8
BD9723E2
3E711275
3CA4BC23
BD80572D
3D6CD7BC
3E312E0C
BDE50445
BE3160D5
3C5FDEC7
3C9C29A5
3E23CA23
3DC75D0C
BD771052
3E955830
BE358633
BE1875FB
3D33EC6D
BE052519
3E04D699
BC588C3E
BD2F211E
3B52245C
BD081902
3CBE9B39
3E658706
BDB94A61
39983625
3EBAEB68
3DD7721F
3E1F0A92
3E514F2B
BDBEE004
3DC9535D
3D05434D
3DE46A53
3E64AB59
BBE02FE7
3CE7CE9D
BE286051
3E6A9135
3D0EDAF4
BDD09FBA
3E1317FA
BDCFF8CD
BE1F8C76
BD695FDE
BD17CCFD
3D941EED
BD4FEBD4
BD97CEF1
BB171501
BDA6780F
BE200AF9
BDECAA06
BD9F4001
BD43EBE4
BE6D1167
3D873144
3E8D4077
3E8BD3FB
BD91F723
BE17134C
BDFD63F4
BE1D3DFA
3DA3EFE0
BDB3B751
3D6B6596
BDE0E42C
39EAAD43
3D4C3854
3DA42780
BDED71AA
BE58F59E
3E0A44EA
BE6B3D1C
BE2641F3
BE863292
BE847605
BE849BA7
BE7025D7
BE46CE86
3E27F4A5
3DA8E09F
3DB59A58
BEB139BD
3E8568F9
3EB554D3
BE022A7A
BCA40DD5
3DF680FA
BD8A9E3D
3E289271
3B13CBF0
BDA8E2DB
3E606B39
BE3FD019
BE3AF2C2
BD947A33
BE581E24
BE8058AF
BE53A3DA
BD371E8B
3D665E54
BC630C4D
3DCC95E5
BE11A67A
3E7CE189
3D9A9D19
BD58E27C
BE03629E
3D7B391C
BE483CB8
BDB43695
BD9CEBDC
3D8AEE72
BE52138A
BDBF2B79
3D67B917
BD34573F
BDE654C8
BE696740
BD2E4AC2
3DFAD64B
BE257043
3C8D4374
3D53C78D
BC6DDE68
BE25DFEF
BDE2BE8A
3E46230D
3DC49AE0
BE02BF3E
3D40A258
3E1A87AC
3CFF980E
3E0F1732
3DE9C397
BD538FAB
3D8E70EA
BD3C4C0E
3E881EEE
BC99627A
BE0D1DB5
3E16A655
3CC367FD
BD91CB75
3DB53A82
BDAF030C
3E990618
3DFD18C6
BE04D4C9
3DAD0310
BE067C03
3BAFCD52
3C96E39D
3D77843F
BE14E631
3E35A298
3DA802D0
BCEA7591
BE083F8D
BDEEBC76
3E1F1005
BDB16BEB
BDE51D16
BDF4EAF8
3DB2725D
BD246CCF
BE2ABE88
3E0CCF89
3CC417B3
3E2842C7
3DE19C4F
3E19BF76
BE27F438
BD9B60E5
BC6AD168
3DC44396
3E2889B9
BE316C53
3D3C9067
BD9275D2
BDB30FFA
3E02A147
3DBCCDF2
3DB52498
BD53D83A
3D790FD5
BD30C663
BDB6B77D
BDC82EFA
BDB2B1C9
3E0C835E
BD5FE643
BDEB197A
3DFCB344
BE360472
BDAE496B
BDD1932C
BDEF57C0
BE1220D5
BE22BA43
3E155ADA
3DE4C860
3E3FC7FC
BDBA909F
3E15BBA2
3DA3C627
BE07DB77
3D829DBF
3CB7A514
BBBD45B9
3DB72B41
BDD386D7
BCC5CF28
3CB62787
BC8717AD
BCB16116
BDA20BF5
BE9EE2FE
BDAC846E
3C5EF0D7
BEB0C2BD
BDB5E03B
3EA8F016
3E8D0C76
3E0D9B54
3E8C4CD5
3DB56FB4
BD4F3F98
BD1D6655
BEAADF35
BD495139
3CFBE38B
3E2B7D0A
3E89E175
BE22BA98
BDFE336F
BD444520
3C951C8E
BC62D04A
BD57774A
BDBAE03D
3E10F9DC
3D81D850
BD24BC27
BDDEBC53
BD3D5AB0
BE4C7087
3DB339DF
BF068953
3EA26D11
BE2E1BC8
BC33473B
BD81E764
BDA50669
3E06D6B2
BE0CE80A
3D879607
3D3656C2
BD795C97
BE15A0EE
3E3D4EC6
3DF4D172
BE039D02
3EA91EDB
BCC3B3F6
BE820059
3F242417
BDD77E36
BBEE0301
3EC20579
3DC00817
3CE32772
3E3C9964
BD96C1F8
BCF5DF00
3EFA8EE6
BE243F06
BDA5FB4C
BD14F5EC
3D5E3A29
3E751A66
BE1A252E
3DF0AF2D
3E3BC355
3D4806FF
BDD35119
3E16299A
3B5E483A
BEBA6FB7
BDED91FD
BECA7E9E
BEB5E660
BE0EF080
3D7DF1BB
3E49915C
3D7084CF
3DC9D727
3E1579A6
3C3D9586
3DE6DB89
BDDA29DF
BDFBF61B
BDD79383
3DA398AE
BDB9C393
BD234D34
BD3EC07C
3CC933AF
3E5123A9
BDE20DA7
BDB18335
BE98F295
BDFC93CD
BE745EC1
BD82D5C2
BE1B163A
3CF2C612
BE1CD99F
BEB4B160
3E1615D3
BE0689B8
3E07CCEF
3DF73794
3DD987D6
BD688F4C
BC11BB2F
BC8E272F
BDA125DC
3E0A542D
3E05DC6C
3E618908
BE06C2ED
3DC43292
BE45CA48
3DD799BA
3CB65932
BE774D81
BDBD63C2
3D86D016
BE297A4D
BE1D588F
3DB97975
BE7FB5AA
BE652E4A
BA152809
3DAFD61C
3E01EAB0
BCE7D650
BE2A6C7A
3DE95F03
3E118DF1
BCD22190
BDA0259B
3ACCA578
3E02F2A1
BDBCEFC8
BE0FCBE1
BDE42746
3D84581B
BD97E892
BDEA9161
3E2A4349
3E0EFA92
BD2CED4F
3D843FA2
3E1A9341
BE1B2064
3D6AC69B
3DE0B621
BD697A31
3CF0E70C
3C9F85D6
BC92AB1D
3E2CD255
3D47878A
BD69D5D2
BD09772D
BCF41D8A
3DE10581
BDB3193A
3D025850
BCC64E63
3E01DB1E
3D1193B4
3E2DA525
3D86ADA8
3DA9288D
3DDBA2C8
BE211483
BE34F862
3CF47810
BC386FD3
BD87215E
BE0E26D5
3D52FA57
BD51E117
3E13361D
3D6B8387
BE08B51B
BDF68D8D
3CC1DBBE
3DCCCA44
BE0F01BB
BC65DB71
3D88BB8E
BE249919
3E291D00
3D22EE51
BD8E8AC3
3E015DD6
BDB5BF21
BDD534EE
3E15B8A5
3D86F5F6
3D70FA09
3E329908
BE2479B6
3D5128AC
3E07AF52
3E0EA61D
BDE07165
BD17F644
3DFBCD1E
BE21DE88
BDB0CF42
BDF3E830
BE157B68
3DDD17C9
BD894511
3D83C5EC
3DF3B6C9
3DC2CEF3
3CDDCA6A
BCA2A723
3CAC1F4B
BE194254
3E3475F0
BD1B6A54
3DDF6AB9
3CE795AC
3D863453
BD5FCA04
BE34BEE4
3D291F66
3D9F24E6
BE24DAC7
3D6C6B49
3E1C3079
BDA8F0C9
3CA232B4
3D458EED
3E1D87E9
BD813713
BDC9DCD7
3D511467
3D2E110E
BE0E3572
BD6F0BFB
3D9FA8C5
3DFA8BB5
BE05AD14
BD0FC6FE
BD6914E5
BE168668
3DE5A97D
BE1EE57E
3D9D367A
BC8DE103
BC04A864
3AAD182F
3E003BB4
BB61A12D
3D1F10A1
3D67EC67
BCFB36C1
BE1869E7
BDB701DF
BE2C5821
3C2F44E4
BCEB3CB0
BE07CDEE
3D9CA0FD
3D444543
BE560C17
BDD0D770
3DD82D63
BC7A8D32
BE1C7559
3E0C60C9
BD8F47F1
BE03FF5C
BD845806
3C035CF7
3E2F4A57
BDB47E6C
3E36B050
3DE1BD73
3E16645E
BE0F694E
BD1441FB
BD9257B1
BD68D37C
3D872CAA
3DC4C053
3C88FD03
3E0F79DC
BE259F2E
BD3DE11E
BE20772B
BC437B50
BD1040FA
BDAE9222
3DFD1F26
BD420B32
BDC0B728
3D77C718
BCBBE808
BDD54AA1
3D751650
3D552055
BD32688C
BE0A2019
3D2B3D58
BE10F95F
3D8AA5AA
3DC0964E
3D82544B
3DEE1ABD
BC3D5F1A
BE06062E
BE02DCDA
3D0971E9
BDB77F67
3E1E570B
3D996B0F
3E26209A
3D2F696B
BCA2731D
3E14DA6E
3EC7637C
BEA6DEE2
BE1B8B25
BE85D97C
BE55EF61
3EF41283
BD1CBD73
3E2A9613
3B5FA87C
3EA61FF9
BD886E40
3E9DADF4
BD65B928
BF17450A
BE02DEE8
3E96DD9D
3D8F770F
BD942DF1
BE1FCFF2
BE2AC17D
BE35584C
BE78BFFC
BE009786
BE12EDC1
3D86657E
BEDE74AA
3B384980
BE5537B2
3EADA594
3DCAF780
3E943082
3E140D11
3D235B01
3D61C69B
3D21D79D
3E2C6A61
BEAF3D41
BE84D1B1
3E040153
BBFE891C
BEA57716
BD3F4F3E
3E12B3AC
3D1D0311
3E37C86C
BD98B3A3
3DA9E3B6
3DCC0E0E
3E9C81C1
BE26E2E4
3E8CCDFF
BE600CA2
3C7AC3A0
3E995B07
BEC3E87A
BD6E86D3
BEE9962F
BEADECC1
BD7383C9
3ED87FB7
BD7E990F
BDCA7114
3DBD0735
3CCE9CF9
BDC68B3C
3DE747C6
3DA818BA
BC684916
BE25211C
3D4BB572
BD931611
BD1DAB7A
BDE8C4D1
BE0B9172
3DAEE21F
BD8837E2
BE05B22B
BDD2B713
3DF5D5FD
3D9D71DF
3DAD4AF5
BCCBFB7A
BDCBB3B9
3D9B8AB1
BB8EEE13
BE1BA586
BDA327AA
BDFDAD19
3DF461A6
3E1A99A4
3DC30A1E
3DF7EB49
BDA5B5C0
BE0A45E3
BD848C71
3E17CEAE
BCCA89F1
3DFA93B3
3D768E15
BD84C79A
BDBE3C59
3E1FADA6
BD193429
BD8AA177
3DCDE663
BDF5D759
3D1ADC1E
3E1E6DA8
BDD7FAE3
BDACF7BB
3DF21EFA
3DF207E4
BB66C99F
BD108C64
BDE0BE33
BD3EECF2
3D6829EF
3DC38A39
3E1C99AA
BD2DB713
3DCDB081
BD69F405
3D1141A5
BDB939FD
BDE30C8F
BD807B67
3D6DED19
BE3FD5E2
BDE897E1
3DBEE734
3D70DD84
3D3A33B1
3CE417F2
3CC6365D
3DF35FFA
BE999573
BE6CC002
3C09EA48
BDB5679D
BE5D0A7D
BE051215
3D4C16E4
3D053E9D
3E58A569
3D737DF7
3E3F93C0
BDC7C430
BE278523
BB924470
3E81CE6D
BE17D66F
BDEA29DC
BE1DA0CC
3DC29CB9
BE397660
BE1C5A76
BE47BA9C
3E1277B7
3D7568BA
BCAC03B2
3D2D52B0
BDFAB13B
3CD17EEE
BE59E2E4
3E28638B
BB396285
BE2C264A
BD6F4B10
BDD57B9E
3D9906B4
BE1F7B4C
BDCF70DC
BDA6648D
3E588F32
3E5320DE
3DDC0D55
3DBBB466
3D61B228
3DD8B525
3E46B294
BE5EDC6E
3E3C40DC
BC183F9C
3E620BBF
3E284D07
BE19C845
3DE1F580
BE3854EA
3D7D0610
3DC64B10
3E813201
3B453B94
3BD38DA2
BCAE2756
BE3B4C6E
BDEFE342
3D64F42D
3DE24D66
BECE4CB8
3EDE122B
BE2DD037
3E46F9B7
BF1AD979
3CB792F4
BE2EC350
3D460F9D
BE6DFFFA
BED2045F
3E066193
BE105EB0
BE0B3A91
BDB09A4C
3E32B8DE
3E592C2A
BC536B36
3E127724
BDC576D2
3EAFD812
BC91C0FF
3BF99689
BDFABE11
BED91BD2
3E02C74A
BE5A02F4
3DCA6B69
3D2BC15D
3D00C415
BF3CE07C
BE2E6B11
3DE29705
3DA658E1
3D8EF6AE
BEA730B5
3E634372
BEFF0272
BD8A3E10
BC1101AD
BDF8D557
3DBE0835
BD5B8CEA
3CDE0290
3ECDC1AB
BEF8B0E1
3D0EF53F
BE4921CC
BEC4D386
3D4896E8
BE165912
3DB5C500
BD276EAA
BE347057
BE3D9AA8
3E1CDA39
BDB3DDF9
BC71EF28
3E2C7F1D
BCC14C26
3DE4E41D
BDECCE5F
3D58090C
BE26DB8B
3E26D5AF
BE11B002
3E1B3470
BDFC4046
BDDCE731
BC8C4737
3D271467
3E21E829
BD85CCCD
BE1E393F
3D714D19
3E2AB2BD
3DC73DF2
3E30EC36
3D1E8D4F
BDFF7BDB
3DC01F42
3D60102B
BE28F4C6
BCD8A293
3DB60809
3E2813F7
BE2A5DAC
BD968257
3DFD2CB9
3D812EAB
3D37BC35
3D82E6F4
BE19BDB6
BE166AF5
BD260DEF
BD181813
BDE5EE96
3D8C9486
3D9115C9
3E3796BD
3C5E23D6
BE00E2DD
BE117D62
BDE27F23
3E32FAFB
BD4EA1EE
BD2D2EDB
BDA9DC0B
3D1323AA
BD85191B
BDECD9C9
3DD4C827
BCA1C25A
BD543F54
BDF7E6BC
BDD56EA1
3AA773AF
BD34EF85
3D974B93
BE16065A
BC03D270
BE93E55B
BF405820
3E628963
BE53B00D
3DF2C563
3F62F60E
BDBA9F6A
BDE51E0F
3E998B7D
3E00DCAF
3CF21FB7
BF66CDA6
3E522AEF
BF5880CD
BD80BC58
3EFBC712
3EAC2FB3
BF1651CE
BE05FA97
BEEEE16F
3DC02068
BC23FA88
3DAE792C
BED24694
3D26D258
BE55E196
BE375805
3F1DA38F
3D943474
BE98E92C
BF6D75D6
BF08C55D
3DC274DD
BC6246E2
BC2D6FD9
3D797924
BE16EFCB
3EEA3644
BE58747E
3EFEB708
BCBF0625
3E030C05
BEAE7FC9
3F2A3D30
BF259CB6
3DEDE22D
3EA8CF5E
BE6A4088
BEE75548
3DCC0FC4
BC705A32
3ED96CC3
BEE88425
3D9234F9
3F3705D9
BEA2DE58
3F096EAA
3D50ED10
3F3B2CC8
3EB57C94
3D10467E
BE9F0A0A
3CEBEE2B
3D87A78B
BDE0C142
BDA81410
BC9D6EE1
3E293939
3DB77570
3D039E37
BE0336A6
BE292A5B
3E2F4346
BD7AE6AA
3D54782F
BDA817E8
BDE6DAB4
BE18A71B
3D9FFCAA
BC8AA06F
BD849325
BE0E4546
3BA1F2B6
BD22E8B4
3D9691F6
BE0B1E43
BE230AB7
3D8CC67A
3D03AC9D
BD8E4FDD
3DC74DCF
3E032846
3D47F770
3DBBDB7E
3DCFDA8D
BB0B966F
3C695711
3DC03B17
BE130574
3DF4783F
BDBF0A1C
BDE0765D
3BAD8803
3E006354
BE19C1F9
3DADC35D
BE092BBA
BE12A906
BE109A53
3DDE2C18
3E000C59
BE199B0A
BE17BF6C
3D2DD1C1
3E126211
3E1A4201
BE05375D
BE0A0652
BD897A30
3DCF892A
BDA95AFE
3DDFD13E
BE0318D6
BE03929E
BE265691
3E0A3237
BD19F6C9
BC8312D5
BE0632FD
BDC2CB6E
BE0B59D5
BE3BE30A
BE15EB87
BDC253A1
BD9B979E
BCE7D995
BE40A595
3B547B0A
39B3E2B0
3C6D2D41
BE021542
BD9B55FC
3D96F226
BBCB72FB
BC98E3BA
BDAA343B
3CEBFFB1
BD640E20
3CE41A72
BE2C455A
BDC60F31
3C40AD9D
3D1E8BE9
3CEEA0F7
BE160BF9
BDB182AC
3D0B1564
3E3BB972
BDCAB201
3DE92789
BDC5BC35
3DAF4A9B
BBDA1596
3E004B68
BD5FCA31
BD89C8B5
BD83BD92
BD9B4BE5
3B629864
3CBD2FDE
BDD8A1FD
3E47FD4E
3E194EBE
3D598C18
3D95C179
3C2CBC96
BE2E0019
BC9AE368
BDE9E4FD
BDE10D09
BD09EAE3
3E12F567
3E0E674F
BA236BDB
3DA30A8B
BDE055BA
3D848970
3DE19E44
BDD3E169
BE3B1DAA
BDBCAE2B
3CCA0BC9
BE351FEE
3D730BB1
3E706AA1
BEAAE90F
3D222C49
BDBB18AE
BE3FA769
BD42E0EC
BE5052F7
3D6072E3
3E44E2A5
3E1B11DD
BE7EEC4E
3CB68ED1
3D9A0225
BD4E4676
BE6B419A
BE819C2C
BD125872
BE0CE7F6
3E16B1CD
3D9C3F16
3DCE184C
3D3CFC19
BDC9A694
BDCD89C5
3CAB80D9
3DBDF629
BD968B5A
BDAA3AA3
3DCA0147
BE6482F3
3DC9010A
BE2229F1
3E2810A0
3D9E1061
3CA59317
3B306FB8
3E86284F
3EB1AE81
3DF03664
3B10E97F
BE040780
3E22055F
BE6D48B8
BD98DB38
3DAEBA2D
BE13618C
BE4A37A3
3DFF827D
BD85164A
BE581714
3DBAB621
3D0BED35
BE04A056
3DCE846B
BE4C27A9
BD9D169E
BD647FCB
BDFD03D6
BCF10528
BD7586BB
BD628F3E
3E2FAC0A
BDB63992
BDF9418F
BCDA8D55
3DC690C6
3DE5E6B8
3E0E6888
3D9C36F9
BDC40533
BDB7FC83
3D8CED25
3CC248B5
3DFA301A
BC6D13F6
3E0B6E91
BDF35444
BD8C688C
3DB3356B
BC5A9216
3D87764C
BE4C8E28
BD71E69F
BDBE2C00
3C40E63F
BDF5A303
3DCF94B4
3D66DCB4
BE2D45D4
BE547F2F
BC62E080
BD6E4541
BE2A5759
3E1C0E8A
BD2667BA
BDF95F30
BDE9EDEB
BD36A7C1
3D8FCBE0
3DF3E780
3E209168
BE0DFAB7
BD1F7D7E
BB2D2271
3C07CCB5
3DA20D42
3E0BDAA0
3D73C4C4
3C42E4C7
BDC92897
BDC8F70D
3DBBADA7
BDB0351B
3DFF5961
3D4539A9
3D060206
3DABAD03
3D22C1E6
3D376E79
3D5845EC
BD9CEACE
BDD7051E
3DCF788E
3D214115
3D08EF76
BE2ECEE6
BCF63003
3CD5748C
BD3F0170
3D9E1B4D
BDD1A299
BDD25A06
3E443B20
3CE53F20
3DF0543E
3D25BE84
3DCE6677
3DB13FDB
BDFA8891
BD80BAEF
3CC18308
3DC49816
BD5557A6
3DEA0DC6
BE01C6FE
3D8A0972
3DA2EBB2
3E2B4DFB
BC268D0D
BDFF4755
BDDB2B99
3E119B77
3D306F78
BDC281A3
3B076E40
BE011C1A
3D03C267
BE5A714E
B9CBAFD9
3D8022FC
BE0D8AC5
BDF148FE
BDAC17A5
BE05E9A4
BD8EFBCA
BDBDDE39
3DD5BB3E
3C4F53E3
3E3CCB34
3D09425B
BE3EA3D1
BD54E8BE
BC9A12C1
3E3F636B
BE03C6AE
BE181571
BD6B441B
3E2FEFBB
3E33F963
BDCA0770
3E023E9D
BDE6FC72
3DCD1B74
3D496431
BE1CCD7B
BDA08BC5
3DC128B6
3D80C45A
3D5F4CD0
BC669DCB
3DD0BE1C
3DF4D765
3DBB5E59
3DAF3121
3D04A846
3D6190B4
BCA84551
3CE4D2E8
3E273856
BD010CC7
BE167A2B
BD8B542C
BD73C553
3DEA207A
BDDBBE0A
BE01E441
3D383AF3
3DBB1053
3DF52D77
3D29C30C
3DDA2FE3
BD712579
3E0BA56B
3DB69BFA
3C11349E
3E0272DD
BE2EC4AE
3D3B28E4
3E18D19F
3CD42934
3E3469BC
3E0052A0
BDF1787C
3E220EF2
3CE53202
BDE5576C
3C4C4B1F
3D8DC9B1
BE0385B0
3E1DDF50
3E100F85
3D4BF88F
3BCD7200
BD94B437
BD329990
BE1F7BF5
3DE2947F
BDF3DF2D
BD8E37CD
3D9D083E
BE186E56
3DE9B2AB
BBAF907B
BD9A1883
3D406CEC
BD79030A
3D39535F
3DCAA360
3E186DE3
3DF467EB
BE2682AE
3D933294
BE2D3E16
BE322D5F
3EEA1DDE
BDF04CE6
BD801322
BDA09F63
3C5620D4
BD0D5653
BDAA0BCC
3E6F34B5
BDE8A289
3E326D95
3E04D157
BEC3BAF1
BDFC8BEE
3BC3EBA6
BE0E982B
BE799E6E
BF083B41
BD0F4205
BB141696
3D204D27
3DD3D18B
3DFD0E9E
3EBBC99B
3DF8F6E9
3DF6078A
BE00356D
3DE0AB82
BE5B4510
BDCD239B
3EB22CB5
3E2A4344
3E593639
BE2B02B6
BB84E7D5
BE41CC5D
BD69ABAA
BE67256D
BE7FF5EA
BCE6CC53
BEA5BEF0
BCE85EAA
BCB62578
3E559F2C
3CF95C9B
3D41804C
3D347773
BEB8AEB4
3E02BD2D
3D1B7CCD
BF24764E
BF466E7C
3EE8A2B4
BD98470A
BE4E4A18
3DA8DF63
BDAD05AF
BD17626C
BE6A7F24
3DAF1EFC
3E9C12F9
3D3A7DF5
BCAD5545
BE559E13
3CDCF387
BA22A2D9
3DC88141
3DEEC728
BDE02EB8
3E09D96C
BD98C834
3D12DC99
BE289C3E
3DE43081
3D8DBA80
3D99A4F6
BCCDFC20
3DBA026D
3C77E3E4
BE3189D0
BC422240
BE10AABE
3E22EB22
3DCFCD66
BAE2DF81
3D53EA25
BD954519
BD27B9E6
BE2EBFF2
3C2882AB
BE25DA3D
3E077FD8
3E292D0E
BC374050
BCB323E0
3C2D78DC
BD83B4EB
3D4765FC
BE273764
BDDCAD9A
BC84F6CC
BDA1CE39
BDD83A84
3C075EAC
BDD1B13F
BE1BF0A2
BE00DEE3
BE04A870
3DFF9158
3B750155
BD653E74
BDBC1722
3DA63664
3DEDAE1D
3E3088C0
BDD0DD97
3DDF547A
3DCDC143
3D9E8586
BDF848C3
3CFB80BD
3E004B4C
BBE3DA64
3DD22508
3E31F860
3D8FB823
3D884B21
3DA71BA9
BD72B2D2
BD2139BA
3CD5F820
BD8BA293
BDA667FA
BCDFE34B
3E3318F4
BD2BDA62
BA6E5C09
3DA85D38
BE3D0A4C
BD97688A
3E26BC92
3E379A66
BC9B999A
3CB5C2EF
BD97FDD1
BFBE8508
3D293664
BE2880B5
BE0D2309
BE1FF76D
BE1FE069
3E36B646
BD8809D9
BE12C2A8
BE4B3330
3D01F8F4
3E1C5179
3CCC4CE0
3E0D32C6
3DFF4A72
3D9515DD
3E197968
BC883CE3
3DADAD13
BE2FCDEB
3CD2B348
3D737564
3E0568B4
BDD5FCA3
3CCF0957
BD84C6D2
3D957C73
3D3F50D4
BD31A7A1
BDC9F7C1
3E5E3A1B
BD07D873
BE3593FF
BEF55B62
BEDC563D
3E002332
BC43B131
BDD958F8
3E2C876A
3E55A409
BD59F66C
BEA26755
BC2DDB3A
3A97E799
BE2B9088
BC61AC23
3DDE8D68
3DE10DDC
BE1881D4
3E8BBAA0
BE831FF6
BD7DEC95
3DB1F38F
BDBF5E77
BD1FD8EB
3D89225C
BE62DB48
3E903ACB
3BE5BDD2
BE4845DC
3DDEE5D6
BD832B5E
3E08AFD7
BDD8721F
BDC749F5
BE93A3B4
3C826330
BEE9ED02
3DCE5A59
3C28BA12
3E363246
3E8A33FF
BDE0CF85
3E0EA828
3D646102
3EDBF3C8
BDC28A64
BF0CEF90
BEA9FBE2
BE6B222D
BD0D42FB
BDD62BC7
BD2E18FC
3E057E01
BD6895FA
BE8206CD
BE168F7A
BE330E3D
BE0D7CE4
BE07833B
BEF4A277
3E1602A8
3DD5F333
3CE0AA0E
BC853858
3E5B57C7
3E2C8DE6
3CCC42FB
3D9FECF0
3E545010
BEBEDE40
3E6A0D1E
BCCD4A44
3D403198
BB0895A5
BEEB0462
3D5A93B6
3C93B483
3E0A445F
BD224796
BD6E7B49
BE782DA7
BCEF6667
BE0EEDAE
3DC3AFD0
3D7D1B10
BE191593
3D0907D7
BE051960
3CDEC53E
BC315D71
3DD7D824
39E4DC7C
BDD1C018
3DD36B8E
BDA1FDD2
3E1901B8
BD5F0C0F
BDFA8D09
3D0A2048
3D9B9CD3
3C9C86E5
BE2CD354
BE2BAA6C
BBD97589
3E4093C2
BE25CC88
3DD9194D
3D000391
BD427D42
3DAD8D22
BC8C74CA
BCAAD3EC
BD45AB0F
3CB18475
3AA06F9F
3B5C8DDB
BDD76902
BE169832
3E26FEA3
3E1CE419
3E1466CC
3E01DBEA
BE29EEFE
3A4B4E06
3DA18D2B
3D1B74F9
3E00466C
BDE722AD
3C89AEAB
3DCF3CF2
3E10B435
BE0D82EB
3E214AEE
BDDC4279
BDAEA47D
3E02B008
BDA31508
BDAB945A
BCE6078C
BDC121BB
3E228B4C
3DDB52D3
3DC14B59
3E1286E4
BE000A3F
BDEEB5F8
3CE93B90
BDFEFF50
BC7F477C
3DF926DC
3DAA20BA
BDAC8C54
BE0C6887
3D45C6B2
BDD51613
3D9CB3EB
3CF2BCF2
3E2B8553
3B8CDF0F
3C5BB521
3DDEF61D
3DE8A36A
BCF885FA
BCD77F9C
3DEABF13
BCD23A6A
3DD3E4C6
BDBB723A
BE20A1B0
3D0544C7
3E15DE46
3DBF934F
3E23DA08
BD588B68
3D97D934
3E02C8A7
BDB596B1
3E04EE6E
BE03CA08
BDDE3464
3DEE56EE
BC93DF9E
3E25D7E6
BD9D4528
3DF1AB81
3D277504
BDEC509F
BD96F886
3D604740
BD82B74C
BDCBDB04
3E15B080
3D9F3EB7
3B1DF522
3CC14AF8
3D4501E2
BCC140D7
BCDF6076
BE22C0C8
3D95C149
3D0CA6A2
BDE64F02
BE0A4E50
BC78086A
3CB052A0
3E295F8D
BB30BC9C
BE251680
3E144D82
BEE38983
BE5282AA
BEB647F5
3EAB73F6
3DFEB904
BD2F20AC
3E38B632
3CD31B7E
BC197D1A
3DCB6D4F
3EE824F6
BD8BEE26
3E1EC85B
BE21EB99
BDDEEDC3
3DA6FAF7
BCB22FEB
3D765ABF
BE1A43A7
BDAC0F0B
BD0BBA4C
3E2520F3
3EAC4453
3E9F6B79
BE01A211
BE0309E5
3DDD0009
3E993D67
BE279170
3E9BB2F5
BECD36BC
3E82619B
BE98ACDB
3E0EB02F
BDE2580B
BB966D07
BE150C13
3E976141
3E8EC4E8
3E9BD29E
BCB2E0B5
3D58FFA6
3F0B3AAF
3E3819C0
3E108FB7
3D9883C4
3E7E612C
3D83BABF
BDC58089
BF188453
3D9A9F09
3C7C6A76
BD1695DC
BDFEF928
BED39A2D
BE677D4D
3E00601B
BED4F23D
3EA7999D
3E46280F
BD0184E5
3DCA1CAA
3DE135EE
3ED06F13
BD9041F1
BD627497
3D7F6417
BC11330A
BE1318E4
3A066CD7
3D97BA88
BE0E8B51
3E4EE078
BEDF16C5
3C60FC7A
BDE99D87
3E0DCFE7
3D48285A
3C96ABB8
3DB72404
3DC79EB4
BD39E2F7
BDFAAD29
BE0E1245
3C95AA99
BDB844CB
BE57A46D
BB86CC76
3D5E4359
3E087967
BE2ABB0D
BC961F8B
BE00EA5C
3DF8E182
BE0BFF08
3E651F02
BBF79C08
3DD85D0D
BD5FE161
3D7E4BF5
3DC030E0
3E60D144
3E6A3905
3E18CA9D
3E19CA3F
BE124C4F
BDCEA109
3E7190CD
BE4700F2
3DB66D11
BE0B9D70
BE96A411
BE0F8D52
BE22DECC
BE21FFA7
BF11E0C5
3C5D4A2D
BD171920
3CEDD5C1
BD64BAF7
3E4CC154
BD1846A2
BDC9F3D7
BC414FEC
BD203980
3DF955A6
3C7C5C4D
BD9A38A9
3D62563E
3E177C1A
3E259177
BDA05964
BE3AA040
3D3D8400
BCED2C3A
3DD64C8D
3E3E79A2
BEB5917B
3E422670
3E65BE57
3D2D43EE
BD50156D
3DC37A0F
3C94D345
BE5273C6
BC93F213
3C193F3F
3E7C0FE0
BE410B3F
3E068EB7
BD393D60
BD3797BB
BDF8AD34
BD3F64D4
BD330BCE
3DD16642
3CE41E00
BDCC1F47
3C718D7B
3E50441C
3DA55F76
BC4CAC49
BE4BC447
BD2F4920
3D3071A4
3D926A6A
3E477F2F
3E29732E
BDA5F7ED
3C86ED0A
3E2FD530
3DC06A45
3DB73D01
BD696A65
BE04DA64
BE70722C
3E2C1B59
BE276C3E
3DFD7596
BF165A80
3D45C493
BE643F52
3BFA3F70
3CD51EFD
BDFFB1DB
BDF522F7
3E566BE9
3D944C23
BC65B345
BE8748CE
BDA4494B
BCB6BE59
BE0DE215
3D8B8BBC
BE0CF53B
BDBE3807
3E160757
3DEAA957
BDD6917B
3BD3CABD
3D75CEC8
BDBD117B
3E1BE3D4
BE3201F4
3D343399
BE2EBCD1
3BCBF238
BDD8E0EF
BCC014CA
BD42DBA7
3D7C4F28
3DE576A7
BE20A154
3D93B64F
3CD23D48
3D507C96
3DEA1021
3CDD2F40
3DC9CA4E
3D0FE7EA
BD5F8C30
3C576F2F
BE168C66
BE2EDB9D
3D573AAE
BD9FF94B
BC055297
3CC5C28F
3D2DC9AB
BD110755
3E0054C4
BE165ACF
3D98A3B8
BBE39723
BDF68DAB
3C982D02
3C5F0F09
BD48C207
3DA1A307
3DE12884
BD6F27C0
3DE7C9D4
3E1EA119
3D96C654
BD0FDE87
3D4D1AA8
BD232435
BE0DFD9B
BCA64BE5
BDBC0B0D
3DDF3228
3E0B40FE
3E04A615
BE30A09D
BDF132F3
3E1A5260
BBD3DF53
BEA148EA
BD1ABCB6
BD5E55E4
3D039B87
3DC0FBFD
BE17EC64
3EA034A7
3E6C4CFC
3C920B28
3F01F8BF
3D9C7A3C
3F31422C
3DB763B0
3D66A590
BE76242B
BD79CF1F
3D2B622E
BCD78430
BC9FAB16
BE1B1D0C
3D80DAFE
BCE853A6
BF026E8F
3B6B126E
BDC927BA
BDC8EAB7
BEACDB2F
BDA10FE2
BD105DA3
3EADDB20
3E49C54F
BE549BA9
BD0B9136
BD419BBC
BE42C5FD
BE127D18
3EA78C0B
BDB75022
BE51C468
BCC742D0
3E077939
BE0EC2C5
BE3ED079
3E4443F7
BE0DA3F0
BE71C6C7
3E81C6DC
3DD8FEB6
BE37B4B1
3E08B5F8
3E8C07EB
BE9DD478
BED87D39
BDC89FA9
BE32D696
BE81DACA
BE8481F2
BF32B688
3D3DB499
BDB03FE5
BF534320
BD950124
3E0BB556
3DD5D68B
BDD04505
3E21DB2A
3BBFEA27
BDC7E6E7
BE38E568
BE1A04BD
BDEACE9E
3CCAF6ED
BE08A3A4
3E1DA91E
3E1FDD65
3E2D0914
3E34AF77
3CEA8C60
BE0EC4B0
3D95DECC
BE0BA612
3E1557C6
3DC6988D
BDB468ED
3E13E343
3DEC0066
3DBAA117
BE218FEF
3DBBE093
BDD7FBC7
BE0726B1
3D3256C0
3DCF323C
BD6154D0
3DF06A96
3E363546
BCE75669
3DFC8AB2
3E0E377E
3D4B73CB
3D85D50D
BD127D64
BDEABBA1
BAA23B61
3E0B6AF1
BD015D5B
3E182D81
3DE1F9B0
3DF4ED5B
3B844181
3DA2B866
BDE2A9BB
3A521A78
3D6316DD
3D4DAB26
3DB1593C
BD064DEE
3D944779
BDA1DB3E
BD7B4191
BD763072
3C953F38
3DE9A7C6
3E26CCFD
3DF0B656
3DD29AF1
BA2C2054
BDAEBA4D
BE0E44EC
BCBD9997
3D131626
3C9BA218
BB91D3C8
3C9D132F
3C1D9B8F
3DB8C3CD
3E1499D2
3D3CE0A6
3E075459
BE1EEE8D
BE17DC9E
BDC9AC35
3E14E7C4
3D99DA94
BDC2EEF1
3C9ED0A1
BD11D177
BE0D881E
BD435085
BDAA290E
BE3C3817
3E1A9234
3DDF7DFA
BD9CB1E1
3DBE186C
3D8289B6
BE0883CB
3DBAF452
3DF8923A
BD6B155E
3E2152E0
BE31CFCA
BC597434
3E0AFF81
3CB3BD82
BD5B8B50
BE12E23B
BD17AD35
3D7AF882
3D322FA2
3E241764
3CB52023
BE22D794
3DB51FDD
3C442C52
BE3EAFC8
BE2BDE24
3D9279F2
3E30CC3A
3E24959E
BCFE8EA4
BDEF1327
BD24C12A
3B1026A2
BD8287B0
3D6A9940
BD860158
3D802FE6
BDC3A6EE
BDAA4193
BD987402
BD9E7003
BE1C8E2F
BCF96630
3E227CDF
BCEBD95D
3E1B547F
3CCC67DA
BDB2D102
3D1C203C
3DD413BA
BD935267
BDE28DB5
BDA3F633
BCE4B7E8
BD406ECC
3DE4BE8A
BCA3EAD4
3E0898AE
BC6A9683
BD2DFBD0
BCF31A9A
3D7F4343
3DD9F38B
BE12F9A7
3B8BB270
3D14ABD7
BDBFEE87
BC2DD7A9
BDE64A36
BC1CEEB5
BC1B37A6
3E3110BA
3D6A6759
3CE2053C
3CEEA097
BE005BF6
BDB375EF
3D9882AC
3D984A64
BDEF6CBC
3C322710
BDC9C805
3DDED1E1
3B9AA942
BE1F6DE9
BDC13C20
3E102B1B
3E191FDC
3D470155
BE18F5CA
BD4150D5
3CF3C3F6
3D49042B
BE2AE575
BE11A7E9
3E4C0A1A
BC2A9170
3D54A7AF
BD97345C
BE263E21
390B5084
3E08F517
BE105BAA
BDB52890
3DF3B30A
3E3BC720
BD01170E
BDA1A879
BE1FAC85
3DDF1CF6
BD9A2AE5
BE1B0FF6
BE66C8D0
3D62844B
BE8AF247
BE3DA711
BE365B97
3E22CDB0
3DF26A5B
3E82066D
3D74E65D
3DD9540F
3D0DEF6C
3DA3E01B
3D36777E
BE2F482D
3DD7FCBF
3CB1FE2D
3C12B208
3D18E77C
BE397A49
3D05DC88
BE091216
3D9E170B
3D855B23
3C3D2361
3E0F9AA4
BDA441ED
BDE1FC46
BE52E9FF
BE3F3BDA
BE9D7634
3E4A8B0F
3E033CCC
3CB18D54
3D1B9BF4
3E18CC3E
3DF33AB9
BDD76950
BDDE7A71
3D816D12
3D8655A2
3E21D7EB
3E10E5CA
BE1368E0
3E3B4618
BE82B77D
3D9D175A
BE0F8EE5
BE872B6E
3DEA9316
BD6F0CCC
3E26481D
BC965B7E
BDA30047
BD5C4247
BA1E14B6
3D227C79
3D86E72D
BB1FCF36
BC894508
3D7CA9BD
3E202E4F
3E1099D8
BDCDDB41
3E298C41
BD07EAB6
BE2A3314
3DCCF8CA
3D730366
3CDDA4BB
3D2715BA
3DE9602E
BCE05213
3E1C784F
3DAD54DE
3E29F789
BC473B78
3D489393
3E052EAF
BE02E25E
3CD2A20B
3CC06054
BCE3B73A
3D5BEF88
3D839007
3E176963
BDC46B7C
BC6BA7F7
3DCC7435
3D3A2B9F
BD705DAF
3E1188CE
388944AE
BD3F920D
3DAC66A8
3D3CA923
BD1BE496
BDBC8147
3DDD68F4
3DC00DBF
3B827271
BBD3EF51
BD6337E8
BE0D0F7D
3D4F784C
3DCB59BF
3E05025B
3D871538
BDB7E1B3
BD6B61A4
3D1F9052
3DF95106
BD0BEF88
3E1542C2
BC0DFFD2
BD48A379
BBC6D366
3E0755D8
BD127926
3CA7AA18
3DAB2F80
BDD55B82
3D3F0C29
3D7CF063
3DFF1672
3DB3EC42
3E636621
3D252D7D
BCED261B
BD312C1E
BEABD542
BE908703
3C9AB0B5
BDAFBC5C
3C3EB009
BE18C0BA
3E2FB8B1
BDEE558B
3C19B45A
3DA1CFD0
BE04B60A
3DC842ED
3E0F56B6
3CBD42AD
3D6E25FC
BE29BD2C
BE331D0B
3BD1DDD9
BDB19EDB
BCF1A50F
BE8C446C
BD6D60CA
BE213279
3E0DA125
BD8C6510
BDDB6BBA
BE4CFE57
BE5ABB8E
BDFC91A2
BE1C32EF
3DA49165
BDD3DFFD
3CBA2C52
BDBF9E0D
BDFDF6BA
BB59F5E9
BDE5A69A
BDFCFE7E
3DED3102
BDA4FAE4
3D4E1614
3C6E918E
3E33A4F7
3DA9D85A
3BB34854
3DD17FB4
BE0E7796
3E362E78
BD32A2E3
3EA3291F
3DA5F4DF
BD5E8131
BD233C56
BD372184
3E292D29
BEB87BA7
BD1B6256
3E837806
BE8D9A17
BC759CCB
BE9BEE4D
3D42295D
3EA24812
3D81CEB8
3E85818F
BE9AB08D
3DE657FC
BEB2AA8F
BE8667BB
BC76DDE0
3EB84E0A
3DF75A6A
BE785FB4
BD80B960
BEA75867
3DE44579
3DB4CBDF
3E24A3FB
BE3534D5
BE026FAA
3E12508A
BE22B050
BE8B0A6D
3E037182
3E15274E
3E0857A8
BECEB88C
BE4D8C77
3DD1AF35
BDAA3545
BDEFCDAB
3D44F485
BEB02C5A
3E92397E
3E8BA396
BC9EF6C1
3DD869D4
3DB3D7DA
3EA3520A
BF12331A
3BEBCC3D
BEF45031
BEC01BEE
BECFAE66
BE60B81D
3E2991E0
BF1240B6
BF09390F
3D958BAC
3E5F786B
BF3C20A8
3D0EA7B3
BF666A5F
3DBD278D
3E6E64F0
BD58E49E
BDAEA462
BD576160
3C07545C
BDAB790A
BCC7ADFE
BE0B58E5
BD541F25
3CA83761
3D833927
BE16719A
3E17FCFA
BDEFDD21
3C7D3450
BDF99F62
3DC3F03A
3E18449F
3D247271
BD0F15C1
3E218C4D
BD15AC5F
3D4DB1EA
BE27C3FB
3D6A182F
3CDE491B
3DAC6E47
3C90CD9A
BC146FA6
3DCCF580
BDFF8618
3E0F486C
3CAD9A69
BE011F5A
BD7E0D1D
BE1B5C72
BDADABC5
3CD688D0
BDAF464E
BDA64F64
BD8BA28E
BD4E3DF8
3BD6E9E2
BDA9BC9F
BDB1E3B2
3DCEB6B9
BD97442A
BDF5D2C1
3D240F99
3C12BD55
BD9455C7
3E06E528
3E1579F6
3D9EFA25
3DF98311
BDB3015C
3DE27258
3D1D35B1
3E3D140B
BD44203F
BDD5C337
3CB546F8
3D4B945A
BBB928CA
3D32DDF2
3D38EA74
3D611FC7
BDD89086
3C75F804
BE07C094
BD6147E6
3E24EB27
3DD2659B
BE05B557
3DCB2592
BE23C82B
3E1B8861
BD2F533E
3E14EA7F
3D5D7E26
3E413047
BDDDA723
3DF28D61
3D72E6D7
BDF49DA7
BDDEF6C6
3E3AA76E
3DE34305
3D1D57C5
3D22E636
BDFFB44C
BDD59C16
3CD3703C
3D88D995
BD265F96
BE1AA72D
BC912354
3DDDB41E
BDCCBF3E
3D81E39C
BCB7529F
3DF4074F
BC8A8894
3DAC8F35
3E2E4954
3D12BFAE
BD9B7CE8
BC8B7C23
3DF00B9F
BD9F82F9
3C5F0FD3
3D827951
BD5609E9
3DD1834A
BE032B4A
BD84F013
3E18DD02
BE0C2B46
3DE37036
3D9AB14C
3D0CDA6C
BD2F982E
BCB2A860
BE125363
BDFBCA3B
BE1D6179
3DEDC60F
BDB47711
BE0E05E4
3D754848
BD8EC07F
BDC4191E
3E396A40
BD67E16A
3B9C7E5A
3DAEED7F
3E47ADB3
3E25B24B
BDF49461
3DCBCB7A
3DED230F
3D5CDC5A
BD561039
3D31452B
BE2E588B
BE1DC44F
3E32D18A
3D0B5995
BDB04356
3DC70398
BE3B86C5
BE337A66
BC8B0238
3DA860C7
3E0AC21D
3DB449ED
3DBCFAD5
3E05028E
3D345E62
BDA382DA
3DB42203
3DFFD1CE
BD33D737
3E21799F
BDB4D640
3D5290A2
BE1FD346
3DAEB94B
BE0B988C
3D5C6E5E
3CCB20F1
BB8CF3E0
BDFADFEE
BCA5235C
BCAD143C
BDAE6D43
3DBC5953
BD97AB48
BDE67D8E
BDE66DEC
BD8843A9
BE16EDCA
BD9058E1
BE110848
BDC716B1
3D3151E3
BDC3AC69
BCE3F60C
3D3CB94D
3DB8E4AA
3E15BDE9
BE2A18A7
3D5C7B7E
BD2FFEA4
BDF19B8A
3E1C95E8
3DF5223D
3E9C19DB
3F00CBBA
BC68E23C
3E252FBE
BD2D7A11
3D6AD22D
BE2734A7
3E7FE04F
3F02CAEB
BE9A7A39
3E70BA8E
BEA9744E
3D7EC91F
BF52947B
3CD6A44C
BEEFEB62
BE0FB6DA
BE5D1AB8
3D648B2F
BEA6788E
BAE53FF1
3D622995
BE899440
BDD1506F
3D851A73
BE09880C
BE1928A9
3CB49D3C
BDEA5729
BF0B6D60
BE16814A
3F1DD35C
BEDB1042
3A70BCC8
BDB11726
BCECE906
BE56FAC1
3E0C0FEF
3BBB9E0C
BE8240FC
3D700856
BC805F48
BE88F4BE
BDFEC87D
3E52758E
BE31B44C
BE9F7305
BDFBC5FD
3D4CDCF8
BF046B4D
3E28B586
BA608EFE
BE5A4267
BE9C5F60
3C17B3A2
BDC61D45
BD8B5D8B
3EBD2C68
BE4B3A7B
3F0307AB
BC440810
3D00B222
3DA873CD
BEADF8A3
BE143EB5
BDC7991A
3E0BEA92
BC4CD98A
3DD109CD
BCD9BD3D
BCCC8322
BDE72BCD
BE211804
3D6AA65E
3D9F70E1
3E2673D4
3CAB0D40
3BB1DB01
3D084F06
BE3606F7
3E027B0E
B991417D
3DF5034C
3C967467
BDF6D686
3DF4C75B
BD81A5F9
BD74F996
3DBD6765
3D8BE880
3D9930FF
3DEA0B21
BDAFF369
BDC47FDB
BCF9101D
3DEA087D
BDACCFAE
BE2843B8
BE1AFA0D
3DF284FC
BDA06F6E
3DB82F93
BC0CB10B
BE3AA8BD
3DB349FF
3C4B3A8B
3DAF47B4
3E1608D9
BE27F332
BE10025F
3E249774
3DBE468B
3DFBAEDC
3D4056D7
3E0FB8A3
3E00E1B0
BE056C35
3E3EC0B1
3D63BA40
3CF69E06
BE1DC48D
BDB6B8CA
3DFC6A23
3E276DA9
BA257700
BDB10F49
BE04F3A6
BDDF1889
3C151569
BC039633
BEB8F11B
3E6912D6
BD2B9106
3E8E8690
3E96186A
BEA9ECA6
3C844721
3E51F6E2
BF030F6C
3B8DBB39
BF18AB38
BEB2A590
3B9CB425
3B1E2640
3E407944
BD5E2D57
BC6AAD00
3E8059C4
3E2FE889
3DCD82A5
3E63CEA2
3F1B58F7
3E130073
BE32AB3A
3CAB358E
3F0BF23E
3BDEB8E0
3D5A7061
BF2186F5
BE413415
3C0EAEE5
3E33D5FB
BE1B2A19
3CEF8793
3D2EB926
BED58DE3
3E19DC55
BD59F117
BC2FF5B4
3E2B00E0
3EA223A2
3E966A64
BEEF3D58
3E3C223E
3E865FD0
BE74EF25
3C3A28C4
BEB56580
3CF5D3C8
BE6A736D
BE483752
3EB6966D
BE5EBE28
3E7CBC98
3E4F4E78
3E50AF9E
3F0EC3E8
BD9C73A8
BE05BA55
BE9300B2
BD996D3E
3E891ED6
BE4A4B17
3D7094AF
3D85B706
3E53873A
BE516E17
3CC1656F
BDCE4770
BE85BD39
BDAD0699
BD59C057
BE490B4D
BDBE12B5
3DBCD5D6
BE172E0F
BE477B1B
3DA3120B
3C493DE4
3D433138
BE3DFB2F
3DD96F16
3DE7022E
BD41EE01
3E2D949F
3DD9067F
3E110F20
BE1AAF5D
BCE37307
3E4F1B84
BE045229
3DBD3188
3DF95AA9
3C14AAF5
BDBEE05D
3C231999
3C49286B
3E0090B1
BDCB9D69
BDD5BA1B
3DA944A0
3E1EA631
3DBC44D5
BE419DD9
3C2DB3A9
3D90EDC0
BE2C353B
3DAFB6F0
BDE447E9
3DCC9237
BC33EEC9
3E486C30
BDE2E309
3E414DE5
3D06A9F7
3E083EF6
3DD8DD7B
3D0283C4
3E18BC51
3D44D851
3E419300
3D7D95FF
3E2403D6
BE19EA41
BE30CA3B
3D82F70D
3D08B917
3E7B6991
3E835C78
BD0B0A23
BD721195
3C2AA942
BD201A47
BD9D03CA
3DF5534E
BE8EA73A
BC5008E1
BD9709D6
3E750AD2
3E10DF8D
BD8C55A6
BCA61B9F
BD261512
BDA7A8DD
BD11A4DA
BB8F4DDC
BDC08E28
BD6C8643
BD91099A
BCE3ED02
3D257942
3DD12761
BD5FFEAF
3EBF6C50
3D551D3F
3E26FE4B
3E2D92A2
3DD06CB0
3E6766A2
3D53DC1B
BE3D7DE6
3E01A9B0
BE2E8F53
3DC1C49F
3E1BF53E
3E14CFF7
BD9594C6
BD07D804
BD1A14FD
3E2D7125
3DE4253E
3D6DC337
BDA8A08C
BE593AB7
BE0F991D
BD85AA10
BE14E781
BE92DBB0
BE3794AF
3DA5C04F
BDB00E49
3E00B07C
3D16EAD0
BD42785C
3D9C7740
3D850EDE
3B3264A5
3D367311
BE36CEDC
BDF089EE
BD4241B4
BD75938B
3DB31154
3DEBB7CB
BDAAA442
3D30FC5F
3E64AE13
BED41B4E
BBE68DE8
3DD05FB6
3D1F0235
3E38A849
BC39B583
3C7AA3CA
BE599D63
3E33989D
BE0B3018
3D49BA86
3CE56572
3C2236BA
BE05D3EA
BE53692B
BDD14427
BE0CCF1C
3DDF57D3
BDAE1CBC
BDF3DA62
3E6C0C22
BDA1FD41
3D4DECFF
3E0CDD51
3E13EA82
BEEDFA29
BE0B15DA
BDCA9DA1
3DB1B0C2
BE3F7359
BDB2C4D3
3D421D1D
3E61BBCB
BDD2CD86
BB963914
3DD0F9A3
BD9A2F49
BDB5BCDB
3D98D33B
3DB376CF
BCB374BA
3E1335BC
BCB66431
BE3480CB
BDDB9D4F
3E231001
3DB57730
BCFA637E
BC437808
3E6E5C75
3E833BF8
3D6F22FE
BDA01C5C
BDE5810F
3E6E758B
BDBB8853
3D13ADA7
BDD228B8
3D1F326A
3D0E2F18
3E2E6E18
BC90F4E3
BDEA6D11
BE255CBA
BE310C1E
BE0059FE
BE1D3455
BE1F397D
3DC97CB1
3BEA5711
BDF66AC2
3C463E93
3E14D0D7
BE2D0605
3D3CEE12
BE316EC0
BC7825B9
3DE9E27E
BD9DD030
BB848454
BD0A90C0
3E0EA3D8
BE1CE352
3D3FE969
3DA34FDD
BDA3DA20
BDBE5E15
BE0E7A65
BD001495
3C1A8BAD
3C6735C1
BD31D2B2
BD1D8F83
BCB1BB62
BCD5C189
3E11A63F
3DD2D750
3DA348A6
3E2C72CD
BDD984B3
3D9743C3
3CC390A0
3C9FC2F0
BE02F49D
BD3E45F8
BCD31CBA
3DC6C553
3DDB4913
3E1410F9
3D0B2E4D
BC6F6CDF
BCEE10ED
3E2A8F73
BCAA7447
BDCC6116
BCB53F0F
BD1A1BCF
BDEDE5D2
BDB312B7
BE17F05F
3DF5C50A
BC74FF7E
BEF66F88
BECDC6EA
BE6D5C5A
3D4BC699
3DC6F77B
3E458EFE
3E8377F2
3DDFF706
3E78D3EB
BE31FFFE
3E426D43
3E92C565
BEEF33A2
3B308175
BE62F6D3
3D7DE26A
3DA41E38
BD73D1D4
3CAB5CD4
BE1C0BB2
BE2DB80C
3E158454
3DDE3CAC
BD6AAAC3
3CBC4CEF
3D804947
BDB1CF2B
3B176733
BEA7315B
BD7BECC8
3DCE9E1A
3DDCF613
BE54BDCB
BE088312
BC7A635D
3B532C69
BBDE742D
BE9C60CE
3C0A38DC
BDAC6100
3D4F7ADC
BCB870EB
3D54D3D2
3D7E3D62
3D82242C
3EA94ABF
3D892F13
BD9BA66D
3C7492A2
BE3AF5A4
BDBBCA31
3E9359CA
3E7014F7
BE84B06F
3F0814AA
BE878299
3DA7311B
3E6AB80D
BEA0748E
B9E85ED1
BF03823D
BDFD247B
3E98A33B
3DE7FB7B
3DDE0F7D
3B54A53C
3E1385D4
BD7CB546
BD06A5E0
BDB5ECE7
BDD4FBB7
3BCBCC38
BE255B5D
3DA7A846
BDD168F3
3E232C73
3E0FE6D9
BE0C8249
3E26B8A2
BE06FC2D
3D8C1B46
BE0F4616
BD58A4E3
3D7486B7
3E0C4BF2
BD42E66C
BBFF783F
3DE274EC
BE2603DB
BCDD1A95
3DAFA0EB
BE2CFAF6
BC704DD5
BE02E517
BE1CF6D9
3DB01BC6
BD92348B
BDE4A9AB
3E245771
3E171402
3E1B415A
BD8CE747
3E273FAB
BDA443AC
3D42F327
BE27A8BC
3D972D9D
BE1E543A
BE24B2DE
BB68B401
3DEFADFA
3D52FE43
BD99BD04
3B5EE90B
3E14BC30
3E27CAF6
3D17AB4B
BD21486B
3D8B0F62
BDDDF375
3D16EFB5
BD5E04CE
BD1D68EF
BDD57520
3E28B60A
3C94DBE1
BD2C7771
3DB748B5
3E054BB4
3DFF192A
BD4BAFA0
BD90008D
3DE0DFEE
3C9DB02B
BE12E05A
BB6CDC12
BE2D6C43
BE23F19B
BDC31A18
3DE87798
3D81473F
BE292E93
BD7BFD14
3E257BB1
3DC25568
BDB31B02
BCD14528
BD3363ED
BD916AEE
BD6EA9E8
BC9B61AD
BDE0E7D8
BE037553
BE048C6F
3CFE44E0
BE1A9618
3DCCD201
3DB7C18F
BD5BC83A
BDCBA974
3E045ED8
3A6846C9
3DA0BCDC
3D46C377
3E384145
BDF7B831
BCE4B795
BE2980A2
BE20F5B5
BDC39D97
BDB03165
3D5B22B8
3D3692B4
BD33700C
BDC110EC
BE13499C
3C888FCE
3DDA9A25
BE47EEED
3D9F44EF
BE2EDE18
BE09B24D
BE04F830
3DA1AB0E
BD36D60C
3D868C54
BD9A5779
3E1A137F
3D56791D
3E2E24EC
3C33D371
BDDFDCA2
BDB705A6
BE230681
3DA733B6
BD2A1443
BE2A9E06
3E039301
BE6C3E71
BDCB8779
BE42420A
3D94F866
3DDBBDDB
3E318A60
BDB3EF03
BE6833C5
3DEBABEF
3D3B0772
3A2740A9
3D3D780D
3E147DF5
BE3493B5
3D47265D
BDB1719B
BD04876E
BE331790
3D513137
BE0CB772
3E595C27
BE3D0E16
BE0F2C78
BE2A668F
3E16728D
3E1D6822
BD152C88
BBB001BF
BE4422C8
3DEDF502
3E958F18
3C766E83
3C83A9D1
3C25CB88
BDFAF23D
BC420952
BBF5D468
BD1ECE64
3D763A44
3DF3ABB0
BDA7CE8A
BD540B48
3E1BB6E7
3E0ED0ED
BDC86CCA
BDDABB16
3D73A5CD
3E0B3D9C
BC0691FB
3E365277
3E205C59
3E5C3B23
3E1C7EFB
BE1F3BF9
3D416769
3D0A1FDF
3E49FE52
3E3005BE
BE00437B
BBEE30E7
BD632834
BDB7A640
3E12DF36
BE22DBD8
3DA9FB4C
BE28C574
BDD2889B
BDED8794
3D70EE4E
3DD7CB3B
BDC741E7
3DD51AE2
3DF66BCB
3E33ACAF
3DDB5929
3D02B50C
BDD751C2
BBAB6EC8
BD836040
3DE46AA6
3DB7B1AC
BD48262D
BE2AD489
BD84B0F2
BDA7872E
3DCF12DA
3CB15DCE
BDEB4B7D
BD897ED8
3DD542C2
BD1DC89C
3E3213D9
BD869324
BCA61500
3DC38331
BDAF9E7B
BD9A8D4E
BDE4A135
3DD7A729
BD183DFF
BD9624D2
3E0C2997
3DB19947
3E0866E6
3D810C02
3D1AC26E
BE01F228
3D8DD314
3D010F75
BD7D9AF7
3E328406
BDFDF2CD
3E0E95C8
3E12921E
BD93A176
BE2ABAA6
3D3EA982
BD62CAC4
3CDC10F2
BDE98BA2
BC08F65D
3EE54E2E
3E8D7994
3E187310
3E84277C
3DD4CA14
BE262523
BE7CFF7A
3E574C7F
3F082392
BDA1BCEF
3E9FB72A
BED77E87
3D20A4DB
BEB8FAEB
BB8AD9D0
BEC0C856
BE43DB2C
BE87E8AE
BDFD9B0D
BE5B54B4
3D844033
BE1E813E
3DEF7568
BE9536D2
BD0ECA10
BD599203
BCB54C64
BD36A1FF
BC2D0D20
BE609DB6
3E2C400E
3ED87643
BED86BF2
3D21B51D
BD85F89F
BE3E75C6
3D9FED4E
BDEA9988
3E08A3D8
BEA0A814
BE0DD66F
3E004ED0
BDCD8E97
3D252755
3E0BA9A2
BC19D7E2
BC0AC5F0
3E053197
3E9ACE73
BECD41E2
3DDE41EF
BDF6347B
BCADE96C
BE0F87FC
3E2CA254
3E0638EF
3DC63B52
3F147517
3DEF5FFF
3E70D23B
BE0DDECC
3D26F240
BDC264DB
BE9DC144
3DA327A5
3DF7CB59
3E3AAC51
3D117244
BD9A1F2B
3C9107F1
3E6CD53C
BE4A3852
3E4A8F5C
BE362566
BE4F96A1
BE3BCC7A
BEB62EC6
BE63D54B
BDFC7B6E
BC5927C0
BD4D7CC9
BCF35C0B
3CAA0CAE
BE677712
BDD1C491
BE0B0473
BDA135EF
3E010E7A
BE28627E
3CEBC4A7
BD8A49D0
3E18A003
3CED5E30
BE219341
BDEDD1B8
3CBE3526
BE6B46DB
BCF9B4B4
3D896B66
BD8D7B1D
BE5BFF6A
BE370970
3E443AE5
3E2E0BDF
3D1AA40B
BE0BC6BE
BE190ED4
BDD707F1
BDB5BA82
BD758263
BD9BF86C
BDCBD846
3DE7C9E1
3E726B25
3E89ABA9
3B8D4B55
3D061093
3E922155
BDC12A00
3D98A886
3D99B53B
3EADC26A
3E9FE6E3
3DD30D69
BE35B037
3E63B42B
3C55BDCE
BDF58F02
BD1FABCC
3D4D1A15
3D45741D
3E0B8D20
BDA386F0
BD033285
BD3C1658
3D68B512
BE1AD592
3C7CA4EF
BD90CC0F
BE08E6C0
3E1596E0
3DC49299
3C81450A
BD2070A3
3E246FAE
3DBB3A1D
BE250E6F
BE130D53
BDACD14B
BD9B26B7
3C921854
3E53BA80
3DC1F187
3D3DC853
3DCFA267
BD87D7C4
BCA1AB10
3D32F5C7
BE2EB14B
3D9E4517
BE02B1F4
3E03E3E6
3DE3810D
BDD36876
BDA1B4FC
3D6C0400
3E1A57E0
BDFAC398
3D8252E4
BD2E30B0
3E3AF2C4
BD8474F9
3D781BBB
3DB4DA1D
3DA869B5
BD932006
3B25E55D
3D39EBFA
3DA2CDB2
3E03B34C
BD8CDF26
BE143993
BBE57C91
3CC11D2B
3E35C87F
3D24018B
3D211E1E
3DDA7019
BD472754
BD12101F
3D044A01
3C97B8D8
3DD268E0
BD97202E
BDF3F70D
BDD40E81
3E178249
BE524FB5
BC1746C8
BE075D4C
3E278944
3E17C7D6
3DA2B03D
3E3B9D41
3CF36C0D
BD0302B1
BE214258
3DACC97B
3E28ACC8
3C65BB8A
3CC959CD
3E170971
3D3BC5BF
BDF432C0
3CC1B22C
BE40BAD6
3CFF878C
3E22B517
3D33D687
BE4B9B88
3DFF195A
BDD26ED3
3CD162D4
3CD7D581
3E1F4A2B
3E18EF4D
BD83D45C
3D348C81
BDEE65AC
3E2BBE3D
3E3C3882
3D978782
BE31950C
3D77619D
BC329D49
3D90B672
3E18BFB3
BDB2E9C5
BD958696
3DC0E295
BD33E65B
BD896875
BCE02482
BD687E15
3D7EB231
BE2AF960
3E3997CF
3DBB6168
BD282EAD
BD116933
BD0988B5
3E229777
BDDA9359
3E0C57B9
BE15FDC2
3E098F2A
BC4BC150
3E4E339F
BD89896E
3DE7398D
BD37B8D1
BD0014B0
BBB7B7DD
BE140A2E
3D4DD3F8
BD2B0B9E
3EBCFD96
3DE0C69F
3E975CAA
3DAB8F72
BE5FD1B5
BDDC64E2
3DA65D5C
3E41EFCC
BE23D4AE
3C7812E4
BCDBC8F1
3CD9D16D
BE5D2E53
BD97939D
BD650C21
BDB5E2A8
BD8E940E
3E85EDF7
BE3E4B1A
3E7D8D88
BBD8463B
3E9E62E0
BDC530A6
BDE7AB01
3E1ECF4B
BC161494
3D23989B
3E2A604C
3CFAE169
3DB76F1A
BDEE182E
BE011661
BD95DB10
BCB234BF
3EF7C7E2
3DF5B077
3CF7C372
BE816D8F
BD43F66F
BE8DFA45
3E1C7A93
BEE8BDA9
BDB9925C
BDE0EB4D
3D5DE329
3E3B137A
BD8DB76C
BD4350FB
BE9674D4
BD49CCDB
BD384F9D
BE8E830F
BCDF996C
3E962C7C
BD491398
3E1EB859
BD2DB8DC
3DCC601C
BD19FBC6
3B927E36
3E231F85
3E00D443
3E058E0B
BCB4ED0D
BE167EE9
3CE6CF48
3E2D3D43
BD9ABD4F
3BA73E9A
BDFB647E
3D963C59
BDEF9DA0
BD831600
BE2A9F17
BD07A735
BE1613E8
BE1AA51C
BD3AC5CF
3DABE0F1
3DF9241E
3E1B0D31
3D59A6EB
BCABA600
BC8D995F
BE48BB28
BD51BDBB
3DE30561
BD504BA2
BC2E8A4F
3CD29EEC
BC921167
3E1B81AA
BC370F19
BE1EB052
3E279DED
BDED1699
BC24029D
BDDB1764
BDB87B82
BE2F1518
3C9D3390
BD9BB9F9
3D9470CB
3DBBC932
3E2C3EC1
3E36090A
BE477517
BCD17708
3D550620
BBDE15A1
BD0C561D
BD5AD7A0
BCA3D675
BCDBE822
BD5473A2
BB21696F
BCBF1BB0
3D8376F4
3DC619DF
3D83C374
BD8CCB0A
BE00862F
BD102271
3D866020
3E0A1263
3E03279B
BE12B04A
3E1BE819
BDC8646F
3D1992B1
BB8341B7
BDCED7CD
39991DE1
3C6E7C1F
BDFCF4AE
BE25263D
3D992C97
3C120584
BE2533AA
3E17CDED
3D817C93
3D87B60B
BDC51F43
BD170909
BC0E4B07
3DCBB2E4
BE1E2A10
3E29442A
BDD11328
3DFD2FE9
3E36175B
3DA58863
BDCB90E6
BD1A919A
3E0C7BC2
3DBE6580
3D514AFC
BDB21A08
3E218650
3DC7AF50
3D191B4D
BE232C6F
BDB43E8E
BDD390E5
BDD6B6F3
BC932491
3C72EA16
BC18ABD9
BDBDB2AD
BE3186E3
3DAEB04E
BDC7AC24
3E15A594
BA8DB4F1
3DA99ED7
3E085DD1
3D965D00
BD9E74BB
BE32DE91
BE2BE420
BCDEA4D0
BCFBF7D5
3DEC8A30
BE89EB51
3DF06C98
BED28B7F
BD00C04A
3F3E5167
BF0CCA63
BDE0FD2B
BE9AB1EF
BD1635B6
BEC1BC8A
3E04F2EE
BEB245A1
BE95E18F
BD2BF34B
3EF234CC
3E968C97
BF5B7A61
BE0688A3
BF4A9971
3CE3D350
BDCF2277
BDB8331E
BEA914F2
3C492FAD
BE13E233
3D41B4E3
BC59259D
BDD493E9
3F0D296C
3E6E5264
BF14CF1A
BEB51317
BB48FED9
BE050135
BDAFC5D2
3D54051F
BE1D68E8
BF377441
3DB74648
3E090A2B
BD8117A3
BD9E3ADB
3F23645B
BEABDBEA
BE03B2EB
BE5EF4FC
BCA19DB4
BEED1C94
3E85490B
BEF881D0
3D5FA77B
BE4B2235
BF2D5D42
3F1E1AD4
BE8C8B3A
3F359209
BF1F97C6
3E99BBED
3E0A0FA0
3D7C58BC
BC26640E
BCF15714
BF6E04B4
3C8B6AD2
BC3CD9E9
3DFC2D4C
BE6BD63F
3E15D0B3
BE20136B
BEF0FBE9
3EA20F52
3E18935F
3E784916
3EEAB0E0
3E84FD28
3E2AD88A
3EACCAA1
BE32AF83
BEB9A9CD
BECB15B0
3E100870
BDDDF0C6
BDCFFD97
3B24B321
BE0CE7F5
BE6C2831
BEA817D4
3DEBDC8B
BDE4CDD4
BDA82229
BF0ADDBE
3DCE9DB6
3EF90A9C
3C8CDA4B
3EABC9FD
BE297DAA
BE2A8891
BD433628
BE228382
3DB367D9
3E8A99DD
BE108C42
3CE62BA8
BD8CD234
3E1315A9
BE16E737
BE7D9006
3EF254D7
BDB78BFF
3E5729F9
BC1A13F4
3E0EADD6
BE2499D6
BEB6F514
BDDD3147
3D2141A7
BF19FA20
BBCD61D1
BE661DB1
BE515A43
BEBA5C65
BEAEF4A8
3DF6C6B5
3D0B50E0
3F15A412
BD9E083A
3D1C5F6E
3DC57818
BCE7F2BB
BE3A547E
3E1691D7
BD29E09C
3CD5A7E1
3DB1C47C
3C90C466
3E23D7B9
3E2960F4
3C18516F
3E171B2E
BD9D1D22
BD6D28EA
BD338445
3D16CEF9
BDBFE616
BDD5D60C
3DB876A6
BCA29686
3DE6FBBB
3C9D52C9
3E255337
3D91D1AB
BDD8958E
BDC008C8
BD5B06F9
BDED24F4
3CF41390
3E15DBEB
3E09D4EF
BD7CB2E9
3D49E910
BD830773
BDA0495F
3DA3CAB7
BD1A5A0A
3E0CB13B
3E42BA0A
BE0B1179
BE0640B1
BD09AF43
BDB28E85
BDD3B1DF
BDC2160C
3E3352A2
BD99BE52
BE2D6FF1
3D028017
3DC40619
3D8F137F
3C094388
3DEF4015
BDEAE4E8
3DFB7324
BC9D718F
BCFBB84A
3D9B647B
BC8044F2
BD0C1454
BD0D86A5
BE1D275E
BD785D80
3BD82905
3E8472AF
3E3BCCC4
3E54682D
3E08FFAF
BE1889CF
3E548621
3DC11C0A
BD52BF0A
BE8AE998
BC4864D8
3E15E6AD
3E034939
BC931FE6
BDA12C93
BD93DDF1
3DF7AF98
BF28FC31
3E080FF0
BE5BFB80
BDC9DA84
BD3C6215
3E0A8B82
3E0D8DF2
3DEFEB2C
BB99ABED
BD38A217
3DDB66DC
3D121313
BD8F04B0
3DC25BB8
3C63B642
3DE36513
3D6B6DF8
BD8217F1
BD7FA4AF
BDA303E1
BE073142
3DCF3148
BC99E79A
BD00DBE1
BDF2F1BF
BDAD5F56
3E0B7716
3E32479E
3BAA0140
BB85A353
3DDD70E0
BD9D5616
BE184C98
3DF611CF
BCB4776D
BD6B1B5D
3DC61D47
3D4FE0D2
3C9D3F45
BE14BFEB
3B8A5F60
BE47FCB9
3BFCF11D
BD8FF8A9
3E07EC90
BDA2884B
BC1A4A98
3D1F110A

