BDFFC491
3D80AD4A
3C28058D
BC9506DD
BCCF2A8B
BCA86F70
BDB48484
BDB516DA
3DE534F4
BDB23F57
BDF6E4C0
3E48F652
BDD762AB
3BDB1CDC
BD0A4A54
BC18D1F3
BCCF8955
BD113C43
BD3B0A85
3C044F90
BC4E034E
BC07B0C4
3DCA0576
BDB0EA22
BBD9C4D8
BC21E436
BD5D4BDB
BD2DBF5B
BCA67235
3DC2A66E
3CF981B7
3C991ACE
BD72B143
BCDE3A63
BC6331A9
BC7FB0BA
BD39DC2A
3D4C5DB7
3D1C231C
3D89B6FF
BC9E0EF4
BD134748
3CB7B5EA
3D38FC76
BD42BAB5
BD18C78D
3D82DCBB
BDAFF42D
BD765FAE
BDCAD7EB
3BA34DE3
BE4BBB2B
BBA2DEE8
BD16B86E
3D23A7F5
BB47EF17
3D892435
BCB526E9
3CF5C12D
3D5CC3EE
BC164BA7
BD1F912A
BCF79426
3D8FD6C2

