vhdl xil_defaultlib "ip/xil_defaultlib/run_mnist_inference_ap_fcmp_0_no_dsp_32.vhd"
vhdl xil_defaultlib "ip/xil_defaultlib/run_mnist_inference_ap_fadd_3_full_dsp_32.vhd"
vhdl xil_defaultlib "ip/xil_defaultlib/run_mnist_inference_ap_fmul_2_max_dsp_32.vhd"
sv xil_defaultlib "run_mnist_inferenrcU.v"
sv xil_defaultlib "AESL_automem_w_matmul1.v"
sv xil_defaultlib "run_mnist_inferenocq.v"
sv xil_defaultlib "AESL_automem_w_add1.v"
sv xil_defaultlib "AESL_automem_w_conv1.v"
sv xil_defaultlib "AESL_automem_w_conv2.v"
sv xil_defaultlib "run_mnist_inferenncg.v"
sv xil_defaultlib "run_mnist_inferencud.v"
sv xil_defaultlib "run_mnist_inference.autotb.v"
sv xil_defaultlib "run_mnist_inferenmb6.v"
sv xil_defaultlib "run_mnist_inferenqcK.v"
sv xil_defaultlib "AESL_automem_input_image.v"
sv xil_defaultlib "run_mnist_inferenhbi.v"
sv xil_defaultlib "run_mnist_inferenfYi.v"
sv xil_defaultlib "run_mnist_inferenkbM.v"
sv xil_defaultlib "run_mnist_inferentde.v"
sv xil_defaultlib "run_mnist_inferenbkb.v"
sv xil_defaultlib "AESL_automem_matmul1.v"
sv xil_defaultlib "AESL_automem_w_add3.v"
sv xil_defaultlib "run_mnist_infereng8j.v"
sv xil_defaultlib "AESL_automem_w_add2.v"
sv xil_defaultlib "run_mnist_inferensc4.v"
sv xil_defaultlib "run_mnist_inferenpcA.v"
sv xil_defaultlib "run_mnist_inference.v"

