BCAECE15
BC8D49C3
BC483DD6
BD7F2E94
BC8C9BC2
BBF3D13C
BD8F7D9C
BD8E367C
BD393FE0
BD5BDE17
3D876417
BD42F995
BD00BF9E
BD628818
BC635E66
3BB6676A
3C18FBD9
BC027E5F
BC0672FD
BD464488
BC90ED86
BCD73E60
3D346C49
BD047612
BCFF4FD5
BD853EF5
BCE722F6
BD938586
3D5D0230
BD010D89
BD3F535A
3CB4CAA6
39A6AC92
BC84F2CD
BCF12434
BBECE2EB
BCE66E3B
BBC9875D
BBE63B9D
BCE0C05C
B8D1A09E
BD00D706
BCE2820A
BD3138C0
BB10EABA
BBDB98E9
BD346044
BC4A02E3
BC6EB4F4
BCE834F0
BD8D9870
3C321284
BCD62000
BD1C1E25
BC297449
BBFE7B0C
BD136E8D
BCCD8C8C
BCD0B2DA
BCA859CC
3CF74A9C
3CA69C45
BBBA54D4
BC96A397

